landing_page - Fri Sep 21 10:48:01 UTC 2018, session >>> 4, duration >>> 18.617
landing_page - Fri Sep 21 10:48:01 UTC 2018, session >>> 3, duration >>> 18.668
landing_page - Fri Sep 21 10:48:01 UTC 2018, session >>> 1, duration >>> 18.666
landing_page - Fri Sep 21 10:48:01 UTC 2018, session >>> 5, duration >>> 18.681
landing_page - Fri Sep 21 10:48:01 UTC 2018, session >>> 2, duration >>> 18.697
create_post - Fri Sep 21 10:48:02 UTC 2018, post_id === 91, request === 1, duration === 19.401
landing_page - Fri Sep 21 10:48:05 UTC 2018, session >>> 4, duration >>> 3.469
landing_page - Fri Sep 21 10:48:05 UTC 2018, session >>> 3, duration >>> 3.493
landing_page - Fri Sep 21 10:48:05 UTC 2018, session >>> 2, duration >>> 3.579
landing_page - Fri Sep 21 10:48:05 UTC 2018, session >>> 5, duration >>> 3.601
landing_page - Fri Sep 21 10:48:05 UTC 2018, session >>> 1, duration >>> 3.706
delete_post - Fri Sep 21 10:48:06 UTC 2018, post_id --- 91, request --- 1, duration --- 4.150
landing_page - Fri Sep 21 10:48:08 UTC 2018, session >>> 4, duration >>> 3.489
landing_page - Fri Sep 21 10:48:08 UTC 2018, session >>> 2, duration >>> 3.572
landing_page - Fri Sep 21 10:48:08 UTC 2018, session >>> 3, duration >>> 3.681
landing_page - Fri Sep 21 10:48:09 UTC 2018, session >>> 5, duration >>> 3.762
landing_page - Fri Sep 21 10:48:09 UTC 2018, session >>> 1, duration >>> 3.766
create_post - Fri Sep 21 10:48:10 UTC 2018, post_id === 92, request === 2, duration === 4.411
landing_page - Fri Sep 21 10:48:12 UTC 2018, session >>> 4, duration >>> 3.700
landing_page - Fri Sep 21 10:48:12 UTC 2018, session >>> 3, duration >>> 3.499
landing_page - Fri Sep 21 10:48:12 UTC 2018, session >>> 2, duration >>> 3.618
landing_page - Fri Sep 21 10:48:12 UTC 2018, session >>> 5, duration >>> 3.595
landing_page - Fri Sep 21 10:48:12 UTC 2018, session >>> 1, duration >>> 3.601
delete_post - Fri Sep 21 10:48:15 UTC 2018, post_id --- 92, request --- 2, duration --- 4.469
landing_page - Fri Sep 21 10:48:15 UTC 2018, session >>> 4, duration >>> 3.473
landing_page - Fri Sep 21 10:48:15 UTC 2018, session >>> 3, duration >>> 3.507
landing_page - Fri Sep 21 10:48:16 UTC 2018, session >>> 2, duration >>> 3.601
landing_page - Fri Sep 21 10:48:16 UTC 2018, session >>> 5, duration >>> 3.526
landing_page - Fri Sep 21 10:48:16 UTC 2018, session >>> 1, duration >>> 3.678
landing_page - Fri Sep 21 10:48:19 UTC 2018, session >>> 4, duration >>> 3.991
landing_page - Fri Sep 21 10:48:19 UTC 2018, session >>> 3, duration >>> 3.993
create_post - Fri Sep 21 10:48:20 UTC 2018, post_id === 93, request === 3, duration === 4.573
landing_page - Fri Sep 21 10:48:20 UTC 2018, session >>> 2, duration >>> 4.078
landing_page - Fri Sep 21 10:48:20 UTC 2018, session >>> 5, duration >>> 4.164
landing_page - Fri Sep 21 10:48:20 UTC 2018, session >>> 1, duration >>> 4.011
landing_page - Fri Sep 21 10:48:23 UTC 2018, session >>> 4, duration >>> 4.082
landing_page - Fri Sep 21 10:48:23 UTC 2018, session >>> 3, duration >>> 4.092
landing_page - Fri Sep 21 10:48:24 UTC 2018, session >>> 2, duration >>> 3.975
landing_page - Fri Sep 21 10:48:24 UTC 2018, session >>> 5, duration >>> 3.978
delete_post - Fri Sep 21 10:48:24 UTC 2018, post_id --- 93, request --- 3, duration --- 4.397
landing_page - Fri Sep 21 10:48:24 UTC 2018, session >>> 1, duration >>> 4.061
landing_page - Fri Sep 21 10:48:27 UTC 2018, session >>> 4, duration >>> 3.599
landing_page - Fri Sep 21 10:48:27 UTC 2018, session >>> 3, duration >>> 3.683
landing_page - Fri Sep 21 10:48:27 UTC 2018, session >>> 2, duration >>> 3.606
landing_page - Fri Sep 21 10:48:28 UTC 2018, session >>> 5, duration >>> 3.686
landing_page - Fri Sep 21 10:48:28 UTC 2018, session >>> 1, duration >>> 3.685
create_post - Fri Sep 21 10:48:28 UTC 2018, post_id === 94, request === 4, duration === 4.362
landing_page - Fri Sep 21 10:48:31 UTC 2018, session >>> 4, duration >>> 3.589
landing_page - Fri Sep 21 10:48:31 UTC 2018, session >>> 3, duration >>> 3.675
landing_page - Fri Sep 21 10:48:31 UTC 2018, session >>> 2, duration >>> 3.655
landing_page - Fri Sep 21 10:48:31 UTC 2018, session >>> 5, duration >>> 3.491
landing_page - Fri Sep 21 10:48:31 UTC 2018, session >>> 1, duration >>> 3.403
delete_post - Fri Sep 21 10:48:33 UTC 2018, post_id --- 94, request --- 4, duration --- 4.196
landing_page - Fri Sep 21 10:48:34 UTC 2018, session >>> 4, duration >>> 3.667
landing_page - Fri Sep 21 10:48:34 UTC 2018, session >>> 3, duration >>> 3.513
landing_page - Fri Sep 21 10:48:34 UTC 2018, session >>> 2, duration >>> 3.494
landing_page - Fri Sep 21 10:48:35 UTC 2018, session >>> 5, duration >>> 3.627
landing_page - Fri Sep 21 10:48:35 UTC 2018, session >>> 1, duration >>> 3.690
create_post - Fri Sep 21 10:48:37 UTC 2018, post_id === 95, request === 5, duration === 4.503
landing_page - Fri Sep 21 10:48:38 UTC 2018, session >>> 4, duration >>> 3.322
landing_page - Fri Sep 21 10:48:38 UTC 2018, session >>> 2, duration >>> 3.500
landing_page - Fri Sep 21 10:48:38 UTC 2018, session >>> 3, duration >>> 3.640
landing_page - Fri Sep 21 10:48:38 UTC 2018, session >>> 5, duration >>> 3.582
landing_page - Fri Sep 21 10:48:38 UTC 2018, session >>> 1, duration >>> 3.589
landing_page - Fri Sep 21 10:48:41 UTC 2018, session >>> 4, duration >>> 3.647
landing_page - Fri Sep 21 10:48:41 UTC 2018, session >>> 3, duration >>> 3.331
delete_post - Fri Sep 21 10:48:41 UTC 2018, post_id --- 95, request --- 5, duration --- 4.350
landing_page - Fri Sep 21 10:48:42 UTC 2018, session >>> 2, duration >>> 3.571
landing_page - Fri Sep 21 10:48:42 UTC 2018, session >>> 5, duration >>> 3.567
landing_page - Fri Sep 21 10:48:42 UTC 2018, session >>> 1, duration >>> 3.404
landing_page - Fri Sep 21 10:48:45 UTC 2018, session >>> 4, duration >>> 3.711
landing_page - Fri Sep 21 10:48:45 UTC 2018, session >>> 3, duration >>> 3.652
landing_page - Fri Sep 21 10:48:45 UTC 2018, session >>> 2, duration >>> 3.596
landing_page - Fri Sep 21 10:48:45 UTC 2018, session >>> 5, duration >>> 3.577
landing_page - Fri Sep 21 10:48:46 UTC 2018, session >>> 1, duration >>> 3.775
create_post - Fri Sep 21 10:48:46 UTC 2018, post_id === 96, request === 6, duration === 4.318
landing_page - Fri Sep 21 10:48:59 UTC 2018, session >>> 4, duration >>> 13.700
landing_page - Fri Sep 21 10:48:59 UTC 2018, session >>> 4, duration >>> 0.662
landing_page - Fri Sep 21 10:49:00 UTC 2018, session >>> 4, duration >>> 0.600
landing_page - Fri Sep 21 10:49:01 UTC 2018, session >>> 4, duration >>> 0.583
landing_page - Fri Sep 21 10:49:01 UTC 2018, session >>> 4, duration >>> 0.588
landing_page - Fri Sep 21 10:49:02 UTC 2018, session >>> 4, duration >>> 0.588
landing_page - Fri Sep 21 10:49:02 UTC 2018, session >>> 4, duration >>> 0.585
landing_page - Fri Sep 21 10:49:03 UTC 2018, session >>> 4, duration >>> 0.586
landing_page - Fri Sep 21 10:49:04 UTC 2018, session >>> 4, duration >>> 0.586
landing_page - Fri Sep 21 10:49:04 UTC 2018, session >>> 2, duration >>> 18.436
landing_page - Fri Sep 21 10:49:04 UTC 2018, session >>> 5, duration >>> 18.180
landing_page - Fri Sep 21 10:49:04 UTC 2018, session >>> 1, duration >>> 18.082
landing_page - Fri Sep 21 10:49:04 UTC 2018, session >>> 3, duration >>> 18.703
delete_post - Fri Sep 21 10:49:05 UTC 2018, post_id --- 96, request --- 6, duration --- 18.747
landing_page - Fri Sep 21 10:49:07 UTC 2018, session >>> 4, duration >>> 3.402
landing_page - Fri Sep 21 10:49:07 UTC 2018, session >>> 2, duration >>> 3.470
landing_page - Fri Sep 21 10:49:07 UTC 2018, session >>> 5, duration >>> 3.502
landing_page - Fri Sep 21 10:49:07 UTC 2018, session >>> 1, duration >>> 3.514
landing_page - Fri Sep 21 10:49:07 UTC 2018, session >>> 3, duration >>> 3.600
create_post - Fri Sep 21 10:49:09 UTC 2018, post_id === 97, request === 7, duration === 4.516
landing_page - Fri Sep 21 10:49:11 UTC 2018, session >>> 4, duration >>> 3.594
landing_page - Fri Sep 21 10:49:11 UTC 2018, session >>> 5, duration >>> 3.496
landing_page - Fri Sep 21 10:49:11 UTC 2018, session >>> 1, duration >>> 3.486
landing_page - Fri Sep 21 10:49:11 UTC 2018, session >>> 2, duration >>> 3.759
landing_page - Fri Sep 21 10:49:11 UTC 2018, session >>> 3, duration >>> 3.697
delete_post - Fri Sep 21 10:49:13 UTC 2018, post_id --- 97, request --- 7, duration --- 4.343
landing_page - Fri Sep 21 10:49:14 UTC 2018, session >>> 4, duration >>> 3.603
landing_page - Fri Sep 21 10:49:14 UTC 2018, session >>> 5, duration >>> 3.578
landing_page - Fri Sep 21 10:49:14 UTC 2018, session >>> 2, duration >>> 3.512
landing_page - Fri Sep 21 10:49:15 UTC 2018, session >>> 1, duration >>> 3.786
landing_page - Fri Sep 21 10:49:15 UTC 2018, session >>> 3, duration >>> 3.693
landing_page - Fri Sep 21 10:49:18 UTC 2018, session >>> 5, duration >>> 3.527
create_post - Fri Sep 21 10:49:18 UTC 2018, post_id === 98, request === 8, duration === 4.386
landing_page - Fri Sep 21 10:49:18 UTC 2018, session >>> 4, duration >>> 3.793
landing_page - Fri Sep 21 10:49:18 UTC 2018, session >>> 2, duration >>> 3.859
landing_page - Fri Sep 21 10:49:19 UTC 2018, session >>> 1, duration >>> 3.989
landing_page - Fri Sep 21 10:49:19 UTC 2018, session >>> 3, duration >>> 4.045
landing_page - Fri Sep 21 10:49:22 UTC 2018, session >>> 5, duration >>> 4.265
landing_page - Fri Sep 21 10:49:22 UTC 2018, session >>> 4, duration >>> 4.190
landing_page - Fri Sep 21 10:49:22 UTC 2018, session >>> 2, duration >>> 4.131
delete_post - Fri Sep 21 10:49:23 UTC 2018, post_id --- 98, request --- 8, duration --- 4.712
landing_page - Fri Sep 21 10:49:23 UTC 2018, session >>> 1, duration >>> 4.267
landing_page - Fri Sep 21 10:49:23 UTC 2018, session >>> 3, duration >>> 4.104
landing_page - Fri Sep 21 10:49:26 UTC 2018, session >>> 5, duration >>> 3.497
landing_page - Fri Sep 21 10:49:26 UTC 2018, session >>> 4, duration >>> 3.670
landing_page - Fri Sep 21 10:49:26 UTC 2018, session >>> 2, duration >>> 3.797
landing_page - Fri Sep 21 10:49:26 UTC 2018, session >>> 1, duration >>> 3.591
landing_page - Fri Sep 21 10:49:27 UTC 2018, session >>> 3, duration >>> 3.589
create_post - Fri Sep 21 10:49:27 UTC 2018, post_id === 99, request === 9, duration === 4.280
landing_page - Fri Sep 21 10:49:29 UTC 2018, session >>> 5, duration >>> 3.591
landing_page - Fri Sep 21 10:49:29 UTC 2018, session >>> 4, duration >>> 3.597
landing_page - Fri Sep 21 10:49:30 UTC 2018, session >>> 2, duration >>> 3.677
landing_page - Fri Sep 21 10:49:30 UTC 2018, session >>> 1, duration >>> 3.519
landing_page - Fri Sep 21 10:49:30 UTC 2018, session >>> 3, duration >>> 3.679
delete_post - Fri Sep 21 10:49:31 UTC 2018, post_id --- 99, request --- 9, duration --- 4.245
landing_page - Fri Sep 21 10:49:33 UTC 2018, session >>> 5, duration >>> 3.761
landing_page - Fri Sep 21 10:49:33 UTC 2018, session >>> 4, duration >>> 3.703
landing_page - Fri Sep 21 10:49:33 UTC 2018, session >>> 2, duration >>> 3.594
landing_page - Fri Sep 21 10:49:34 UTC 2018, session >>> 1, duration >>> 3.579
landing_page - Fri Sep 21 10:49:34 UTC 2018, session >>> 3, duration >>> 3.407
create_post - Fri Sep 21 10:49:36 UTC 2018, post_id === 100, request === 10, duration === 4.503
landing_page - Fri Sep 21 10:49:37 UTC 2018, session >>> 5, duration >>> 3.603
landing_page - Fri Sep 21 10:49:37 UTC 2018, session >>> 4, duration >>> 3.663
landing_page - Fri Sep 21 10:49:37 UTC 2018, session >>> 2, duration >>> 3.574
landing_page - Fri Sep 21 10:49:37 UTC 2018, session >>> 1, duration >>> 3.578
landing_page - Fri Sep 21 10:49:37 UTC 2018, session >>> 3, duration >>> 3.803
delete_post - Fri Sep 21 10:49:40 UTC 2018, post_id --- 100, request --- 10, duration --- 4.404
landing_page - Fri Sep 21 10:49:40 UTC 2018, session >>> 5, duration >>> 3.578
landing_page - Fri Sep 21 10:49:40 UTC 2018, session >>> 4, duration >>> 3.503
landing_page - Fri Sep 21 10:49:41 UTC 2018, session >>> 2, duration >>> 3.469
landing_page - Fri Sep 21 10:49:41 UTC 2018, session >>> 1, duration >>> 3.684
landing_page - Fri Sep 21 10:49:41 UTC 2018, session >>> 3, duration >>> 3.588
landing_page - Fri Sep 21 10:49:44 UTC 2018, session >>> 5, duration >>> 3.591
landing_page - Fri Sep 21 10:49:44 UTC 2018, session >>> 4, duration >>> 3.586
landing_page - Fri Sep 21 10:49:44 UTC 2018, session >>> 2, duration >>> 3.599
create_post - Fri Sep 21 10:49:44 UTC 2018, post_id === 101, request === 11, duration === 4.180
landing_page - Fri Sep 21 10:49:44 UTC 2018, session >>> 1, duration >>> 3.508
landing_page - Fri Sep 21 10:49:45 UTC 2018, session >>> 3, duration >>> 3.657
landing_page - Fri Sep 21 10:49:47 UTC 2018, session >>> 5, duration >>> 3.681
landing_page - Fri Sep 21 10:49:48 UTC 2018, session >>> 4, duration >>> 3.699
landing_page - Fri Sep 21 10:49:48 UTC 2018, session >>> 2, duration >>> 3.617
landing_page - Fri Sep 21 10:49:48 UTC 2018, session >>> 1, duration >>> 3.804
landing_page - Fri Sep 21 10:49:48 UTC 2018, session >>> 3, duration >>> 3.623
delete_post - Fri Sep 21 10:49:48 UTC 2018, post_id --- 101, request --- 11, duration --- 4.157
landing_page - Fri Sep 21 10:50:06 UTC 2018, session >>> 5, duration >>> 18.542
landing_page - Fri Sep 21 10:50:06 UTC 2018, session >>> 1, duration >>> 17.812
landing_page - Fri Sep 21 10:50:06 UTC 2018, session >>> 3, duration >>> 17.621
landing_page - Fri Sep 21 10:50:06 UTC 2018, session >>> 4, duration >>> 18.659
landing_page - Fri Sep 21 10:50:06 UTC 2018, session >>> 2, duration >>> 18.565
create_post - Fri Sep 21 10:50:07 UTC 2018, post_id === 102, request === 12, duration === 18.597
landing_page - Fri Sep 21 10:50:09 UTC 2018, session >>> 5, duration >>> 3.058
landing_page - Fri Sep 21 10:50:09 UTC 2018, session >>> 1, duration >>> 3.251
landing_page - Fri Sep 21 10:50:09 UTC 2018, session >>> 3, duration >>> 3.327
landing_page - Fri Sep 21 10:50:10 UTC 2018, session >>> 4, duration >>> 3.604
landing_page - Fri Sep 21 10:50:10 UTC 2018, session >>> 2, duration >>> 3.770
delete_post - Fri Sep 21 10:50:12 UTC 2018, post_id --- 102, request --- 12, duration --- 4.464
landing_page - Fri Sep 21 10:50:13 UTC 2018, session >>> 5, duration >>> 3.665
landing_page - Fri Sep 21 10:50:13 UTC 2018, session >>> 1, duration >>> 3.497
landing_page - Fri Sep 21 10:50:13 UTC 2018, session >>> 3, duration >>> 3.601
landing_page - Fri Sep 21 10:50:14 UTC 2018, session >>> 2, duration >>> 3.414
landing_page - Fri Sep 21 10:50:14 UTC 2018, session >>> 4, duration >>> 3.669
create_post - Fri Sep 21 10:50:16 UTC 2018, post_id === 103, request === 13, duration === 4.375
landing_page - Fri Sep 21 10:50:16 UTC 2018, session >>> 5, duration >>> 3.523
landing_page - Fri Sep 21 10:50:16 UTC 2018, session >>> 1, duration >>> 3.651
landing_page - Fri Sep 21 10:50:17 UTC 2018, session >>> 3, duration >>> 3.694
landing_page - Fri Sep 21 10:50:17 UTC 2018, session >>> 4, duration >>> 3.489
landing_page - Fri Sep 21 10:50:17 UTC 2018, session >>> 2, duration >>> 3.577
landing_page - Fri Sep 21 10:50:20 UTC 2018, session >>> 1, duration >>> 3.515
landing_page - Fri Sep 21 10:50:20 UTC 2018, session >>> 5, duration >>> 3.772
delete_post - Fri Sep 21 10:50:20 UTC 2018, post_id --- 103, request --- 13, duration --- 4.176
landing_page - Fri Sep 21 10:50:20 UTC 2018, session >>> 3, duration >>> 3.694
landing_page - Fri Sep 21 10:50:21 UTC 2018, session >>> 4, duration >>> 3.592
landing_page - Fri Sep 21 10:50:21 UTC 2018, session >>> 2, duration >>> 3.813
landing_page - Fri Sep 21 10:50:24 UTC 2018, session >>> 5, duration >>> 3.520
landing_page - Fri Sep 21 10:50:24 UTC 2018, session >>> 1, duration >>> 3.767
landing_page - Fri Sep 21 10:50:24 UTC 2018, session >>> 3, duration >>> 3.647
landing_page - Fri Sep 21 10:50:24 UTC 2018, session >>> 4, duration >>> 3.522
create_post - Fri Sep 21 10:50:24 UTC 2018, post_id === 104, request === 14, duration === 4.287
landing_page - Fri Sep 21 10:50:25 UTC 2018, session >>> 2, duration >>> 3.645
landing_page - Fri Sep 21 10:50:27 UTC 2018, session >>> 5, duration >>> 3.644
landing_page - Fri Sep 21 10:50:27 UTC 2018, session >>> 1, duration >>> 3.691
landing_page - Fri Sep 21 10:50:28 UTC 2018, session >>> 3, duration >>> 3.609
landing_page - Fri Sep 21 10:50:28 UTC 2018, session >>> 4, duration >>> 3.688
landing_page - Fri Sep 21 10:50:28 UTC 2018, session >>> 2, duration >>> 3.624
delete_post - Fri Sep 21 10:50:28 UTC 2018, post_id --- 104, request --- 14, duration --- 4.006
landing_page - Fri Sep 21 10:50:31 UTC 2018, session >>> 5, duration >>> 3.694
landing_page - Fri Sep 21 10:50:31 UTC 2018, session >>> 1, duration >>> 3.598
landing_page - Fri Sep 21 10:50:31 UTC 2018, session >>> 3, duration >>> 3.693
landing_page - Fri Sep 21 10:50:32 UTC 2018, session >>> 4, duration >>> 3.769
landing_page - Fri Sep 21 10:50:32 UTC 2018, session >>> 2, duration >>> 3.853
create_post - Fri Sep 21 10:50:33 UTC 2018, post_id === 105, request === 15, duration === 4.364
landing_page - Fri Sep 21 10:50:34 UTC 2018, session >>> 5, duration >>> 3.412
landing_page - Fri Sep 21 10:50:35 UTC 2018, session >>> 1, duration >>> 3.570
landing_page - Fri Sep 21 10:50:35 UTC 2018, session >>> 3, duration >>> 3.611
landing_page - Fri Sep 21 10:50:35 UTC 2018, session >>> 4, duration >>> 3.686
landing_page - Fri Sep 21 10:50:36 UTC 2018, session >>> 2, duration >>> 3.588
delete_post - Fri Sep 21 10:50:37 UTC 2018, post_id --- 105, request --- 15, duration --- 4.382
landing_page - Fri Sep 21 10:50:38 UTC 2018, session >>> 5, duration >>> 3.688
landing_page - Fri Sep 21 10:50:38 UTC 2018, session >>> 1, duration >>> 3.501
landing_page - Fri Sep 21 10:50:39 UTC 2018, session >>> 3, duration >>> 3.566
landing_page - Fri Sep 21 10:50:39 UTC 2018, session >>> 4, duration >>> 3.574
landing_page - Fri Sep 21 10:50:39 UTC 2018, session >>> 2, duration >>> 3.424
create_post - Fri Sep 21 10:50:42 UTC 2018, post_id === 106, request === 16, duration === 4.301
landing_page - Fri Sep 21 10:50:42 UTC 2018, session >>> 1, duration >>> 3.424
landing_page - Fri Sep 21 10:50:42 UTC 2018, session >>> 5, duration >>> 3.590
landing_page - Fri Sep 21 10:50:42 UTC 2018, session >>> 3, duration >>> 3.572
landing_page - Fri Sep 21 10:50:43 UTC 2018, session >>> 4, duration >>> 3.500
landing_page - Fri Sep 21 10:50:43 UTC 2018, session >>> 2, duration >>> 3.582
landing_page - Fri Sep 21 10:50:45 UTC 2018, session >>> 1, duration >>> 3.763
landing_page - Fri Sep 21 10:50:45 UTC 2018, session >>> 5, duration >>> 3.766
delete_post - Fri Sep 21 10:50:46 UTC 2018, post_id --- 106, request --- 16, duration --- 4.242
landing_page - Fri Sep 21 10:50:46 UTC 2018, session >>> 3, duration >>> 3.719
landing_page - Fri Sep 21 10:50:46 UTC 2018, session >>> 4, duration >>> 3.615
landing_page - Fri Sep 21 10:50:46 UTC 2018, session >>> 2, duration >>> 3.697
landing_page - Fri Sep 21 10:50:49 UTC 2018, session >>> 5, duration >>> 3.389
landing_page - Fri Sep 21 10:50:49 UTC 2018, session >>> 1, duration >>> 3.691
landing_page - Fri Sep 21 10:50:50 UTC 2018, session >>> 3, duration >>> 3.677
landing_page - Fri Sep 21 10:50:50 UTC 2018, session >>> 4, duration >>> 3.573
create_post - Fri Sep 21 10:50:50 UTC 2018, post_id === 107, request === 17, duration === 4.032
landing_page - Fri Sep 21 10:50:50 UTC 2018, session >>> 2, duration >>> 3.783
landing_page - Fri Sep 21 10:51:03 UTC 2018, session >>> 5, duration >>> 13.895
landing_page - Fri Sep 21 10:51:03 UTC 2018, session >>> 5, duration >>> 0.585
landing_page - Fri Sep 21 10:51:04 UTC 2018, session >>> 5, duration >>> 0.584
landing_page - Fri Sep 21 10:51:05 UTC 2018, session >>> 5, duration >>> 0.584
landing_page - Fri Sep 21 10:51:05 UTC 2018, session >>> 5, duration >>> 0.530
landing_page - Fri Sep 21 10:51:06 UTC 2018, session >>> 5, duration >>> 0.595
landing_page - Fri Sep 21 10:51:06 UTC 2018, session >>> 5, duration >>> 0.585
landing_page - Fri Sep 21 10:51:07 UTC 2018, session >>> 5, duration >>> 0.584
landing_page - Fri Sep 21 10:51:07 UTC 2018, session >>> 5, duration >>> 0.596
landing_page - Fri Sep 21 10:51:08 UTC 2018, session >>> 1, duration >>> 18.699
landing_page - Fri Sep 21 10:51:08 UTC 2018, session >>> 3, duration >>> 18.273
landing_page - Fri Sep 21 10:51:08 UTC 2018, session >>> 4, duration >>> 18.079
landing_page - Fri Sep 21 10:51:08 UTC 2018, session >>> 2, duration >>> 17.599
delete_post - Fri Sep 21 10:51:08 UTC 2018, post_id --- 107, request --- 17, duration --- 18.577
landing_page - Fri Sep 21 10:51:10 UTC 2018, session >>> 5, duration >>> 2.374
landing_page - Fri Sep 21 10:51:11 UTC 2018, session >>> 3, duration >>> 3.489
landing_page - Fri Sep 21 10:51:11 UTC 2018, session >>> 2, duration >>> 3.584
landing_page - Fri Sep 21 10:51:11 UTC 2018, session >>> 1, duration >>> 3.685
landing_page - Fri Sep 21 10:51:12 UTC 2018, session >>> 4, duration >>> 3.699
create_post - Fri Sep 21 10:51:13 UTC 2018, post_id === 108, request === 18, duration === 4.177
landing_page - Fri Sep 21 10:51:13 UTC 2018, session >>> 5, duration >>> 3.500
landing_page - Fri Sep 21 10:51:15 UTC 2018, session >>> 3, duration >>> 3.592
landing_page - Fri Sep 21 10:51:15 UTC 2018, session >>> 2, duration >>> 3.577
landing_page - Fri Sep 21 10:51:15 UTC 2018, session >>> 1, duration >>> 3.584
landing_page - Fri Sep 21 10:51:15 UTC 2018, session >>> 4, duration >>> 3.600
delete_post - Fri Sep 21 10:51:17 UTC 2018, post_id --- 108, request --- 18, duration --- 4.089
landing_page - Fri Sep 21 10:51:17 UTC 2018, session >>> 5, duration >>> 3.668
landing_page - Fri Sep 21 10:51:19 UTC 2018, session >>> 3, duration >>> 3.679
landing_page - Fri Sep 21 10:51:19 UTC 2018, session >>> 1, duration >>> 3.577
landing_page - Fri Sep 21 10:51:19 UTC 2018, session >>> 2, duration >>> 3.784
landing_page - Fri Sep 21 10:51:19 UTC 2018, session >>> 4, duration >>> 3.779
landing_page - Fri Sep 21 10:51:21 UTC 2018, session >>> 5, duration >>> 3.977
create_post - Fri Sep 21 10:51:22 UTC 2018, post_id === 109, request === 19, duration === 4.766
landing_page - Fri Sep 21 10:51:23 UTC 2018, session >>> 3, duration >>> 4.208
landing_page - Fri Sep 21 10:51:23 UTC 2018, session >>> 1, duration >>> 4.254
landing_page - Fri Sep 21 10:51:23 UTC 2018, session >>> 4, duration >>> 4.103
landing_page - Fri Sep 21 10:51:23 UTC 2018, session >>> 2, duration >>> 4.297
landing_page - Fri Sep 21 10:51:25 UTC 2018, session >>> 5, duration >>> 3.999
delete_post - Fri Sep 21 10:51:26 UTC 2018, post_id --- 109, request --- 19, duration --- 4.766
landing_page - Fri Sep 21 10:51:26 UTC 2018, session >>> 1, duration >>> 3.529
landing_page - Fri Sep 21 10:51:27 UTC 2018, session >>> 3, duration >>> 3.693
landing_page - Fri Sep 21 10:51:27 UTC 2018, session >>> 4, duration >>> 3.542
landing_page - Fri Sep 21 10:51:27 UTC 2018, session >>> 2, duration >>> 3.691
landing_page - Fri Sep 21 10:51:29 UTC 2018, session >>> 5, duration >>> 3.571
landing_page - Fri Sep 21 10:51:30 UTC 2018, session >>> 1, duration >>> 3.660
landing_page - Fri Sep 21 10:51:30 UTC 2018, session >>> 4, duration >>> 3.535
landing_page - Fri Sep 21 10:51:30 UTC 2018, session >>> 3, duration >>> 3.782
landing_page - Fri Sep 21 10:51:30 UTC 2018, session >>> 2, duration >>> 3.586
create_post - Fri Sep 21 10:51:31 UTC 2018, post_id === 110, request === 20, duration === 4.208
landing_page - Fri Sep 21 10:51:32 UTC 2018, session >>> 5, duration >>> 3.613
landing_page - Fri Sep 21 10:51:34 UTC 2018, session >>> 1, duration >>> 3.526
landing_page - Fri Sep 21 10:51:34 UTC 2018, session >>> 4, duration >>> 3.672
landing_page - Fri Sep 21 10:51:34 UTC 2018, session >>> 3, duration >>> 3.668
landing_page - Fri Sep 21 10:51:34 UTC 2018, session >>> 2, duration >>> 3.681
delete_post - Fri Sep 21 10:51:35 UTC 2018, post_id --- 110, request --- 20, duration --- 4.238
landing_page - Fri Sep 21 10:51:36 UTC 2018, session >>> 5, duration >>> 3.588
landing_page - Fri Sep 21 10:51:37 UTC 2018, session >>> 1, duration >>> 3.661
landing_page - Fri Sep 21 10:51:37 UTC 2018, session >>> 4, duration >>> 3.587
landing_page - Fri Sep 21 10:51:38 UTC 2018, session >>> 3, duration >>> 3.595
landing_page - Fri Sep 21 10:51:38 UTC 2018, session >>> 2, duration >>> 3.690
create_post - Fri Sep 21 10:51:39 UTC 2018, post_id === 111, request === 21, duration === 4.222
landing_page - Fri Sep 21 10:51:39 UTC 2018, session >>> 5, duration >>> 3.589
landing_page - Fri Sep 21 10:51:41 UTC 2018, session >>> 1, duration >>> 3.570
landing_page - Fri Sep 21 10:51:41 UTC 2018, session >>> 4, duration >>> 3.594
landing_page - Fri Sep 21 10:51:41 UTC 2018, session >>> 3, duration >>> 3.513
landing_page - Fri Sep 21 10:51:42 UTC 2018, session >>> 2, duration >>> 3.660
landing_page - Fri Sep 21 10:51:43 UTC 2018, session >>> 5, duration >>> 3.706
delete_post - Fri Sep 21 10:51:43 UTC 2018, post_id --- 111, request --- 21, duration --- 4.351
landing_page - Fri Sep 21 10:51:45 UTC 2018, session >>> 1, duration >>> 3.606
landing_page - Fri Sep 21 10:51:45 UTC 2018, session >>> 4, duration >>> 3.665
landing_page - Fri Sep 21 10:51:45 UTC 2018, session >>> 3, duration >>> 3.681
landing_page - Fri Sep 21 10:51:45 UTC 2018, session >>> 2, duration >>> 3.403
landing_page - Fri Sep 21 10:51:47 UTC 2018, session >>> 5, duration >>> 3.763
create_post - Fri Sep 21 10:51:48 UTC 2018, post_id === 112, request === 22, duration === 4.508
landing_page - Fri Sep 21 10:51:48 UTC 2018, session >>> 1, duration >>> 3.608
landing_page - Fri Sep 21 10:51:48 UTC 2018, session >>> 4, duration >>> 3.590
landing_page - Fri Sep 21 10:51:48 UTC 2018, session >>> 3, duration >>> 3.572
landing_page - Fri Sep 21 10:51:49 UTC 2018, session >>> 2, duration >>> 3.685
landing_page - Fri Sep 21 10:51:51 UTC 2018, session >>> 5, duration >>> 3.715
landing_page - Fri Sep 21 10:51:52 UTC 2018, session >>> 1, duration >>> 3.797
landing_page - Fri Sep 21 10:51:52 UTC 2018, session >>> 4, duration >>> 3.803
landing_page - Fri Sep 21 10:51:52 UTC 2018, session >>> 3, duration >>> 3.716
delete_post - Fri Sep 21 10:51:52 UTC 2018, post_id --- 112, request --- 22, duration --- 4.274
landing_page - Fri Sep 21 10:51:52 UTC 2018, session >>> 2, duration >>> 3.681
landing_page - Fri Sep 21 10:52:05 UTC 2018, session >>> 5, duration >>> 14.765
landing_page - Fri Sep 21 10:52:06 UTC 2018, session >>> 5, duration >>> 0.580
landing_page - Fri Sep 21 10:52:07 UTC 2018, session >>> 5, duration >>> 0.589
landing_page - Fri Sep 21 10:52:07 UTC 2018, session >>> 5, duration >>> 0.594
landing_page - Fri Sep 21 10:52:08 UTC 2018, session >>> 5, duration >>> 0.588
landing_page - Fri Sep 21 10:52:08 UTC 2018, session >>> 5, duration >>> 0.590
landing_page - Fri Sep 21 10:52:09 UTC 2018, session >>> 5, duration >>> 0.588
landing_page - Fri Sep 21 10:52:09 UTC 2018, session >>> 2, duration >>> 17.120
landing_page - Fri Sep 21 10:52:10 UTC 2018, session >>> 5, duration >>> 0.789
landing_page - Fri Sep 21 10:52:11 UTC 2018, session >>> 4, duration >>> 18.375
landing_page - Fri Sep 21 10:52:11 UTC 2018, session >>> 1, duration >>> 18.551
landing_page - Fri Sep 21 10:52:11 UTC 2018, session >>> 3, duration >>> 18.381
landing_page - Fri Sep 21 10:52:11 UTC 2018, session >>> 2, duration >>> 1.494
create_post - Fri Sep 21 10:52:11 UTC 2018, post_id === 113, request === 23, duration === 18.867
landing_page - Fri Sep 21 10:52:13 UTC 2018, session >>> 5, duration >>> 2.893
landing_page - Fri Sep 21 10:52:14 UTC 2018, session >>> 4, duration >>> 3.506
landing_page - Fri Sep 21 10:52:14 UTC 2018, session >>> 3, duration >>> 3.591
landing_page - Fri Sep 21 10:52:14 UTC 2018, session >>> 1, duration >>> 3.700
landing_page - Fri Sep 21 10:52:15 UTC 2018, session >>> 2, duration >>> 3.675
delete_post - Fri Sep 21 10:52:15 UTC 2018, post_id --- 113, request --- 23, duration --- 4.195
landing_page - Fri Sep 21 10:52:16 UTC 2018, session >>> 5, duration >>> 3.670
landing_page - Fri Sep 21 10:52:18 UTC 2018, session >>> 4, duration >>> 3.671
landing_page - Fri Sep 21 10:52:18 UTC 2018, session >>> 3, duration >>> 3.877
landing_page - Fri Sep 21 10:52:18 UTC 2018, session >>> 1, duration >>> 3.852
landing_page - Fri Sep 21 10:52:19 UTC 2018, session >>> 2, duration >>> 3.898
create_post - Fri Sep 21 10:52:20 UTC 2018, post_id === 114, request === 24, duration === 4.366
landing_page - Fri Sep 21 10:52:20 UTC 2018, session >>> 5, duration >>> 3.607
landing_page - Fri Sep 21 10:52:21 UTC 2018, session >>> 4, duration >>> 3.572
landing_page - Fri Sep 21 10:52:22 UTC 2018, session >>> 1, duration >>> 3.498
landing_page - Fri Sep 21 10:52:22 UTC 2018, session >>> 3, duration >>> 3.594
landing_page - Fri Sep 21 10:52:22 UTC 2018, session >>> 2, duration >>> 3.656
landing_page - Fri Sep 21 10:52:24 UTC 2018, session >>> 5, duration >>> 3.673
delete_post - Fri Sep 21 10:52:24 UTC 2018, post_id --- 114, request --- 24, duration --- 4.271
landing_page - Fri Sep 21 10:52:25 UTC 2018, session >>> 4, duration >>> 3.597
landing_page - Fri Sep 21 10:52:25 UTC 2018, session >>> 1, duration >>> 3.591
landing_page - Fri Sep 21 10:52:25 UTC 2018, session >>> 3, duration >>> 3.694
landing_page - Fri Sep 21 10:52:26 UTC 2018, session >>> 2, duration >>> 3.697
landing_page - Fri Sep 21 10:52:28 UTC 2018, session >>> 5, duration >>> 3.815
create_post - Fri Sep 21 10:52:28 UTC 2018, post_id === 115, request === 25, duration === 4.395
landing_page - Fri Sep 21 10:52:29 UTC 2018, session >>> 4, duration >>> 3.589
landing_page - Fri Sep 21 10:52:29 UTC 2018, session >>> 1, duration >>> 3.727
landing_page - Fri Sep 21 10:52:29 UTC 2018, session >>> 3, duration >>> 3.768
landing_page - Fri Sep 21 10:52:30 UTC 2018, session >>> 2, duration >>> 3.578
landing_page - Fri Sep 21 10:52:31 UTC 2018, session >>> 5, duration >>> 3.667
landing_page - Fri Sep 21 10:52:32 UTC 2018, session >>> 4, duration >>> 3.600
delete_post - Fri Sep 21 10:52:33 UTC 2018, post_id --- 115, request --- 25, duration --- 4.099
landing_page - Fri Sep 21 10:52:33 UTC 2018, session >>> 3, duration >>> 3.429
landing_page - Fri Sep 21 10:52:33 UTC 2018, session >>> 1, duration >>> 3.665
landing_page - Fri Sep 21 10:52:33 UTC 2018, session >>> 2, duration >>> 3.609
landing_page - Fri Sep 21 10:52:35 UTC 2018, session >>> 5, duration >>> 3.689
landing_page - Fri Sep 21 10:52:36 UTC 2018, session >>> 4, duration >>> 3.609
landing_page - Fri Sep 21 10:52:36 UTC 2018, session >>> 3, duration >>> 3.651
landing_page - Fri Sep 21 10:52:36 UTC 2018, session >>> 1, duration >>> 3.763
create_post - Fri Sep 21 10:52:37 UTC 2018, post_id === 116, request === 26, duration === 4.174
landing_page - Fri Sep 21 10:52:37 UTC 2018, session >>> 2, duration >>> 3.598
landing_page - Fri Sep 21 10:52:39 UTC 2018, session >>> 5, duration >>> 3.783
landing_page - Fri Sep 21 10:52:40 UTC 2018, session >>> 4, duration >>> 3.851
landing_page - Fri Sep 21 10:52:40 UTC 2018, session >>> 3, duration >>> 3.780
landing_page - Fri Sep 21 10:52:40 UTC 2018, session >>> 1, duration >>> 3.733
landing_page - Fri Sep 21 10:52:41 UTC 2018, session >>> 2, duration >>> 3.862
delete_post - Fri Sep 21 10:52:41 UTC 2018, post_id --- 116, request --- 26, duration --- 4.377
landing_page - Fri Sep 21 10:52:42 UTC 2018, session >>> 5, duration >>> 3.416
landing_page - Fri Sep 21 10:52:43 UTC 2018, session >>> 4, duration >>> 3.616
landing_page - Fri Sep 21 10:52:44 UTC 2018, session >>> 3, duration >>> 3.591
landing_page - Fri Sep 21 10:52:44 UTC 2018, session >>> 1, duration >>> 3.577
landing_page - Fri Sep 21 10:52:44 UTC 2018, session >>> 2, duration >>> 3.301
landing_page - Fri Sep 21 10:52:44 UTC 2018, session >>> 5, duration >>> 2.088
create_post - Fri Sep 21 10:52:44 UTC 2018, post_id === 117, request === 27, duration === 3.122
delete_post - Fri Sep 21 10:52:45 UTC 2018, post_id --- 117, request --- 27, duration --- 0.631
