landing_page - Fri Sep 21 11:05:55 UTC 2018, session >>> 5, duration >>> 13.649
landing_page - Fri Sep 21 11:05:55 UTC 2018, session >>> 5, duration >>> 0.548
landing_page - Fri Sep 21 11:05:56 UTC 2018, session >>> 5, duration >>> 0.593
landing_page - Fri Sep 21 11:05:56 UTC 2018, session >>> 5, duration >>> 0.582
landing_page - Fri Sep 21 11:05:57 UTC 2018, session >>> 5, duration >>> 0.584
landing_page - Fri Sep 21 11:05:58 UTC 2018, session >>> 5, duration >>> 0.683
landing_page - Fri Sep 21 11:05:58 UTC 2018, session >>> 5, duration >>> 0.585
landing_page - Fri Sep 21 11:05:59 UTC 2018, session >>> 5, duration >>> 0.547
landing_page - Fri Sep 21 11:05:59 UTC 2018, session >>> 5, duration >>> 0.671
landing_page - Fri Sep 21 11:06:00 UTC 2018, session >>> 3, duration >>> 18.804
landing_page - Fri Sep 21 11:06:00 UTC 2018, session >>> 4, duration >>> 18.820
landing_page - Fri Sep 21 11:06:00 UTC 2018, session >>> 2, duration >>> 18.828
landing_page - Fri Sep 21 11:06:00 UTC 2018, session >>> 1, duration >>> 18.882
create_post - Fri Sep 21 11:06:00 UTC 2018, post_id === 157, request === 1, duration === 19.528
landing_page - Fri Sep 21 11:06:03 UTC 2018, session >>> 5, duration >>> 3.588
landing_page - Fri Sep 21 11:06:03 UTC 2018, session >>> 1, duration >>> 3.493
landing_page - Fri Sep 21 11:06:03 UTC 2018, session >>> 2, duration >>> 3.580
landing_page - Fri Sep 21 11:06:03 UTC 2018, session >>> 4, duration >>> 3.658
landing_page - Fri Sep 21 11:06:03 UTC 2018, session >>> 3, duration >>> 3.674
delete_post - Fri Sep 21 11:06:05 UTC 2018, post_id --- 157, request --- 1, duration --- 4.053
landing_page - Fri Sep 21 11:06:07 UTC 2018, session >>> 5, duration >>> 3.674
landing_page - Fri Sep 21 11:06:07 UTC 2018, session >>> 1, duration >>> 3.528
landing_page - Fri Sep 21 11:06:07 UTC 2018, session >>> 2, duration >>> 3.563
landing_page - Fri Sep 21 11:06:07 UTC 2018, session >>> 4, duration >>> 3.610
landing_page - Fri Sep 21 11:06:07 UTC 2018, session >>> 3, duration >>> 3.797
create_post - Fri Sep 21 11:06:09 UTC 2018, post_id === 158, request === 2, duration === 4.302
landing_page - Fri Sep 21 11:06:10 UTC 2018, session >>> 5, duration >>> 3.596
landing_page - Fri Sep 21 11:06:11 UTC 2018, session >>> 2, duration >>> 3.579
landing_page - Fri Sep 21 11:06:11 UTC 2018, session >>> 1, duration >>> 3.752
landing_page - Fri Sep 21 11:06:11 UTC 2018, session >>> 3, duration >>> 3.563
landing_page - Fri Sep 21 11:06:11 UTC 2018, session >>> 4, duration >>> 3.768
delete_post - Fri Sep 21 11:06:13 UTC 2018, post_id --- 158, request --- 2, duration --- 4.566
landing_page - Fri Sep 21 11:06:14 UTC 2018, session >>> 2, duration >>> 3.513
landing_page - Fri Sep 21 11:06:14 UTC 2018, session >>> 1, duration >>> 3.421
landing_page - Fri Sep 21 11:06:14 UTC 2018, session >>> 5, duration >>> 3.766
landing_page - Fri Sep 21 11:06:14 UTC 2018, session >>> 4, duration >>> 3.497
landing_page - Fri Sep 21 11:06:14 UTC 2018, session >>> 3, duration >>> 3.593
landing_page - Fri Sep 21 11:06:18 UTC 2018, session >>> 2, duration >>> 3.674
landing_page - Fri Sep 21 11:06:18 UTC 2018, session >>> 5, duration >>> 3.603
create_post - Fri Sep 21 11:06:18 UTC 2018, post_id === 159, request === 3, duration === 4.304
landing_page - Fri Sep 21 11:06:18 UTC 2018, session >>> 1, duration >>> 3.858
landing_page - Fri Sep 21 11:06:18 UTC 2018, session >>> 4, duration >>> 3.691
landing_page - Fri Sep 21 11:06:18 UTC 2018, session >>> 3, duration >>> 3.614
landing_page - Fri Sep 21 11:06:21 UTC 2018, session >>> 2, duration >>> 3.586
landing_page - Fri Sep 21 11:06:22 UTC 2018, session >>> 5, duration >>> 3.798
landing_page - Fri Sep 21 11:06:22 UTC 2018, session >>> 4, duration >>> 3.689
landing_page - Fri Sep 21 11:06:23 UTC 2018, session >>> 3, duration >>> 4.871
landing_page - Fri Sep 21 11:06:23 UTC 2018, session >>> 1, duration >>> 5.300
delete_post - Fri Sep 21 11:06:23 UTC 2018, post_id --- 159, request --- 3, duration --- 5.654
landing_page - Fri Sep 21 11:06:26 UTC 2018, session >>> 5, duration >>> 4.007
landing_page - Fri Sep 21 11:06:26 UTC 2018, session >>> 2, duration >>> 4.294
landing_page - Fri Sep 21 11:06:26 UTC 2018, session >>> 4, duration >>> 4.202
landing_page - Fri Sep 21 11:06:27 UTC 2018, session >>> 3, duration >>> 3.580
landing_page - Fri Sep 21 11:06:27 UTC 2018, session >>> 1, duration >>> 3.701
create_post - Fri Sep 21 11:06:28 UTC 2018, post_id === 160, request === 4, duration === 4.403
landing_page - Fri Sep 21 11:06:29 UTC 2018, session >>> 2, duration >>> 3.485
landing_page - Fri Sep 21 11:06:29 UTC 2018, session >>> 5, duration >>> 3.745
landing_page - Fri Sep 21 11:06:30 UTC 2018, session >>> 4, duration >>> 3.760
landing_page - Fri Sep 21 11:06:30 UTC 2018, session >>> 3, duration >>> 3.603
landing_page - Fri Sep 21 11:06:31 UTC 2018, session >>> 1, duration >>> 3.690
delete_post - Fri Sep 21 11:06:32 UTC 2018, post_id --- 160, request --- 4, duration --- 4.349
landing_page - Fri Sep 21 11:06:33 UTC 2018, session >>> 2, duration >>> 3.501
landing_page - Fri Sep 21 11:06:33 UTC 2018, session >>> 5, duration >>> 3.693
landing_page - Fri Sep 21 11:06:33 UTC 2018, session >>> 4, duration >>> 3.582
landing_page - Fri Sep 21 11:06:34 UTC 2018, session >>> 3, duration >>> 3.592
landing_page - Fri Sep 21 11:06:34 UTC 2018, session >>> 1, duration >>> 3.661
landing_page - Fri Sep 21 11:06:37 UTC 2018, session >>> 2, duration >>> 4.173
create_post - Fri Sep 21 11:06:37 UTC 2018, post_id === 161, request === 5, duration === 4.714
landing_page - Fri Sep 21 11:06:37 UTC 2018, session >>> 5, duration >>> 4.075
landing_page - Fri Sep 21 11:06:37 UTC 2018, session >>> 4, duration >>> 4.135
landing_page - Fri Sep 21 11:06:38 UTC 2018, session >>> 1, duration >>> 4.089
landing_page - Fri Sep 21 11:06:39 UTC 2018, session >>> 3, duration >>> 5.578
landing_page - Fri Sep 21 11:06:40 UTC 2018, session >>> 2, duration >>> 3.678
landing_page - Fri Sep 21 11:06:41 UTC 2018, session >>> 5, duration >>> 3.598
delete_post - Fri Sep 21 11:06:41 UTC 2018, post_id --- 161, request --- 5, duration --- 4.249
landing_page - Fri Sep 21 11:06:41 UTC 2018, session >>> 4, duration >>> 3.774
landing_page - Fri Sep 21 11:06:42 UTC 2018, session >>> 1, duration >>> 3.600
landing_page - Fri Sep 21 11:06:43 UTC 2018, session >>> 3, duration >>> 3.583
landing_page - Fri Sep 21 11:06:44 UTC 2018, session >>> 2, duration >>> 3.414
landing_page - Fri Sep 21 11:06:44 UTC 2018, session >>> 5, duration >>> 3.517
landing_page - Fri Sep 21 11:06:46 UTC 2018, session >>> 2, duration >>> 2.410
landing_page - Fri Sep 21 11:06:46 UTC 2018, session >>> 5, duration >>> 2.161
landing_page - Fri Sep 21 11:06:48 UTC 2018, session >>> 2, duration >>> 1.248
landing_page - Fri Sep 21 11:06:48 UTC 2018, session >>> 5, duration >>> 1.195
landing_page - Fri Sep 21 11:06:49 UTC 2018, session >>> 2, duration >>> 1.128
landing_page - Fri Sep 21 11:06:49 UTC 2018, session >>> 5, duration >>> 1.183
landing_page - Fri Sep 21 11:06:50 UTC 2018, session >>> 2, duration >>> 1.271
landing_page - Fri Sep 21 11:06:50 UTC 2018, session >>> 5, duration >>> 1.218
landing_page - Fri Sep 21 11:06:51 UTC 2018, session >>> 2, duration >>> 1.182
landing_page - Fri Sep 21 11:06:51 UTC 2018, session >>> 5, duration >>> 1.181
landing_page - Fri Sep 21 11:06:53 UTC 2018, session >>> 2, duration >>> 1.267
landing_page - Fri Sep 21 11:06:53 UTC 2018, session >>> 5, duration >>> 1.267
landing_page - Fri Sep 21 11:06:54 UTC 2018, session >>> 2, duration >>> 1.187
landing_page - Fri Sep 21 11:06:54 UTC 2018, session >>> 5, duration >>> 1.189
landing_page - Fri Sep 21 11:06:55 UTC 2018, session >>> 2, duration >>> 1.196
landing_page - Fri Sep 21 11:06:55 UTC 2018, session >>> 5, duration >>> 1.196
landing_page - Fri Sep 21 11:06:56 UTC 2018, session >>> 2, duration >>> 1.210
landing_page - Fri Sep 21 11:06:57 UTC 2018, session >>> 5, duration >>> 1.690
landing_page - Fri Sep 21 11:06:57 UTC 2018, session >>> 2, duration >>> 1.187
landing_page - Fri Sep 21 11:06:58 UTC 2018, session >>> 5, duration >>> 1.277
landing_page - Fri Sep 21 11:06:59 UTC 2018, session >>> 2, duration >>> 1.262
landing_page - Fri Sep 21 11:06:59 UTC 2018, session >>> 5, duration >>> 1.300
landing_page - Fri Sep 21 11:07:00 UTC 2018, session >>> 2, duration >>> 1.298
landing_page - Fri Sep 21 11:07:00 UTC 2018, session >>> 4, duration >>> 19.061
landing_page - Fri Sep 21 11:07:00 UTC 2018, session >>> 1, duration >>> 18.376
landing_page - Fri Sep 21 11:07:00 UTC 2018, session >>> 3, duration >>> 17.500
landing_page - Fri Sep 21 11:07:01 UTC 2018, session >>> 5, duration >>> 1.810
landing_page - Fri Sep 21 11:07:03 UTC 2018, session >>> 2, duration >>> 2.694
landing_page - Fri Sep 21 11:07:03 UTC 2018, session >>> 4, duration >>> 2.989
landing_page - Fri Sep 21 11:07:03 UTC 2018, session >>> 1, duration >>> 2.998
landing_page - Fri Sep 21 11:07:03 UTC 2018, session >>> 3, duration >>> 3.069
landing_page - Fri Sep 21 11:07:04 UTC 2018, session >>> 5, duration >>> 3.168
landing_page - Fri Sep 21 11:07:06 UTC 2018, session >>> 2, duration >>> 3.011
create_post - Fri Sep 21 11:07:06 UTC 2018, post_id === 162, request === 6, duration === 24.703
landing_page - Fri Sep 21 11:07:07 UTC 2018, session >>> 4, duration >>> 3.193
landing_page - Fri Sep 21 11:07:07 UTC 2018, session >>> 1, duration >>> 3.100
landing_page - Fri Sep 21 11:07:07 UTC 2018, session >>> 3, duration >>> 3.136
landing_page - Fri Sep 21 11:07:08 UTC 2018, session >>> 5, duration >>> 3.504
landing_page - Fri Sep 21 11:07:09 UTC 2018, session >>> 2, duration >>> 3.656
landing_page - Fri Sep 21 11:07:10 UTC 2018, session >>> 4, duration >>> 3.512
landing_page - Fri Sep 21 11:07:10 UTC 2018, session >>> 1, duration >>> 3.592
delete_post - Fri Sep 21 11:07:10 UTC 2018, post_id --- 162, request --- 6, duration --- 4.252
landing_page - Fri Sep 21 11:07:10 UTC 2018, session >>> 3, duration >>> 3.579
landing_page - Fri Sep 21 11:07:11 UTC 2018, session >>> 5, duration >>> 3.650
landing_page - Fri Sep 21 11:07:13 UTC 2018, session >>> 2, duration >>> 3.383
landing_page - Fri Sep 21 11:07:14 UTC 2018, session >>> 4, duration >>> 3.675
landing_page - Fri Sep 21 11:07:14 UTC 2018, session >>> 1, duration >>> 3.666
landing_page - Fri Sep 21 11:07:14 UTC 2018, session >>> 3, duration >>> 3.863
create_post - Fri Sep 21 11:07:15 UTC 2018, post_id === 163, request === 7, duration === 4.407
landing_page - Fri Sep 21 11:07:15 UTC 2018, session >>> 5, duration >>> 3.625
landing_page - Fri Sep 21 11:07:16 UTC 2018, session >>> 2, duration >>> 3.490
landing_page - Fri Sep 21 11:07:17 UTC 2018, session >>> 4, duration >>> 3.472
landing_page - Fri Sep 21 11:07:17 UTC 2018, session >>> 1, duration >>> 3.588
landing_page - Fri Sep 21 11:07:18 UTC 2018, session >>> 3, duration >>> 3.581
landing_page - Fri Sep 21 11:07:19 UTC 2018, session >>> 5, duration >>> 3.691
delete_post - Fri Sep 21 11:07:19 UTC 2018, post_id --- 163, request --- 7, duration --- 4.292
landing_page - Fri Sep 21 11:07:20 UTC 2018, session >>> 2, duration >>> 3.500
landing_page - Fri Sep 21 11:07:21 UTC 2018, session >>> 4, duration >>> 3.908
landing_page - Fri Sep 21 11:07:21 UTC 2018, session >>> 1, duration >>> 4.012
landing_page - Fri Sep 21 11:07:22 UTC 2018, session >>> 3, duration >>> 3.898
landing_page - Fri Sep 21 11:07:23 UTC 2018, session >>> 5, duration >>> 3.862
create_post - Fri Sep 21 11:07:24 UTC 2018, post_id === 164, request === 8, duration === 4.654
landing_page - Fri Sep 21 11:07:25 UTC 2018, session >>> 2, duration >>> 4.773
landing_page - Fri Sep 21 11:07:25 UTC 2018, session >>> 4, duration >>> 3.578
landing_page - Fri Sep 21 11:07:25 UTC 2018, session >>> 1, duration >>> 3.664
landing_page - Fri Sep 21 11:07:25 UTC 2018, session >>> 3, duration >>> 3.517
landing_page - Fri Sep 21 11:07:26 UTC 2018, session >>> 5, duration >>> 3.585
delete_post - Fri Sep 21 11:07:28 UTC 2018, post_id --- 164, request --- 8, duration --- 4.388
landing_page - Fri Sep 21 11:07:28 UTC 2018, session >>> 2, duration >>> 3.532
landing_page - Fri Sep 21 11:07:28 UTC 2018, session >>> 4, duration >>> 3.616
landing_page - Fri Sep 21 11:07:29 UTC 2018, session >>> 1, duration >>> 3.585
landing_page - Fri Sep 21 11:07:29 UTC 2018, session >>> 3, duration >>> 3.673
landing_page - Fri Sep 21 11:07:30 UTC 2018, session >>> 5, duration >>> 3.589
landing_page - Fri Sep 21 11:07:32 UTC 2018, session >>> 2, duration >>> 3.649
landing_page - Fri Sep 21 11:07:32 UTC 2018, session >>> 4, duration >>> 3.600
create_post - Fri Sep 21 11:07:32 UTC 2018, post_id === 165, request === 9, duration === 4.278
landing_page - Fri Sep 21 11:07:32 UTC 2018, session >>> 1, duration >>> 3.619
landing_page - Fri Sep 21 11:07:33 UTC 2018, session >>> 3, duration >>> 3.671
landing_page - Fri Sep 21 11:07:33 UTC 2018, session >>> 5, duration >>> 3.500
landing_page - Fri Sep 21 11:07:35 UTC 2018, session >>> 2, duration >>> 3.421
landing_page - Fri Sep 21 11:07:36 UTC 2018, session >>> 4, duration >>> 3.580
landing_page - Fri Sep 21 11:07:36 UTC 2018, session >>> 1, duration >>> 3.696
landing_page - Fri Sep 21 11:07:36 UTC 2018, session >>> 3, duration >>> 3.692
delete_post - Fri Sep 21 11:07:37 UTC 2018, post_id --- 165, request --- 9, duration --- 4.282
landing_page - Fri Sep 21 11:07:37 UTC 2018, session >>> 5, duration >>> 3.617
landing_page - Fri Sep 21 11:07:39 UTC 2018, session >>> 2, duration >>> 3.688
landing_page - Fri Sep 21 11:07:39 UTC 2018, session >>> 4, duration >>> 3.778
landing_page - Fri Sep 21 11:07:40 UTC 2018, session >>> 1, duration >>> 3.573
landing_page - Fri Sep 21 11:07:40 UTC 2018, session >>> 3, duration >>> 3.611
landing_page - Fri Sep 21 11:07:41 UTC 2018, session >>> 5, duration >>> 4.040
create_post - Fri Sep 21 11:07:41 UTC 2018, post_id === 166, request === 10, duration === 4.393
landing_page - Fri Sep 21 11:07:43 UTC 2018, session >>> 4, duration >>> 3.789
landing_page - Fri Sep 21 11:07:43 UTC 2018, session >>> 2, duration >>> 4.649
landing_page - Fri Sep 21 11:07:43 UTC 2018, session >>> 1, duration >>> 3.863
landing_page - Fri Sep 21 11:07:44 UTC 2018, session >>> 3, duration >>> 3.979
landing_page - Fri Sep 21 11:07:45 UTC 2018, session >>> 5, duration >>> 3.523
delete_post - Fri Sep 21 11:07:46 UTC 2018, post_id --- 166, request --- 10, duration --- 4.460
create_post - Fri Sep 21 11:07:48 UTC 2018, post_id === 167, request === 11, duration === 2.126
delete_post - Fri Sep 21 11:07:48 UTC 2018, post_id --- 167, request --- 11, duration --- 0.580
create_post - Fri Sep 21 11:07:49 UTC 2018, post_id === 168, request === 12, duration === 0.670
delete_post - Fri Sep 21 11:07:50 UTC 2018, post_id --- 168, request --- 12, duration --- 0.576
create_post - Fri Sep 21 11:07:50 UTC 2018, post_id === 169, request === 13, duration === 0.594
delete_post - Fri Sep 21 11:07:51 UTC 2018, post_id --- 169, request --- 13, duration --- 0.767
create_post - Fri Sep 21 11:07:52 UTC 2018, post_id === 170, request === 14, duration === 0.592
delete_post - Fri Sep 21 11:07:52 UTC 2018, post_id --- 170, request --- 14, duration --- 0.581
create_post - Fri Sep 21 11:07:53 UTC 2018, post_id === 171, request === 15, duration === 0.593
delete_post - Fri Sep 21 11:07:53 UTC 2018, post_id --- 171, request --- 15, duration --- 0.582
create_post - Fri Sep 21 11:07:54 UTC 2018, post_id === 172, request === 16, duration === 0.656
delete_post - Fri Sep 21 11:07:55 UTC 2018, post_id --- 172, request --- 16, duration --- 0.588
create_post - Fri Sep 21 11:07:55 UTC 2018, post_id === 173, request === 17, duration === 0.594
delete_post - Fri Sep 21 11:07:56 UTC 2018, post_id --- 173, request --- 17, duration --- 0.591
create_post - Fri Sep 21 11:07:56 UTC 2018, post_id === 174, request === 18, duration === 0.592
delete_post - Fri Sep 21 11:07:57 UTC 2018, post_id --- 174, request --- 18, duration --- 0.621
create_post - Fri Sep 21 11:07:58 UTC 2018, post_id === 175, request === 19, duration === 0.588
delete_post - Fri Sep 21 11:07:58 UTC 2018, post_id --- 175, request --- 19, duration --- 0.575
create_post - Fri Sep 21 11:07:59 UTC 2018, post_id === 176, request === 20, duration === 0.628
delete_post - Fri Sep 21 11:08:00 UTC 2018, post_id --- 176, request --- 20, duration --- 0.591
create_post - Fri Sep 21 11:08:00 UTC 2018, post_id === 177, request === 21, duration === 0.633
delete_post - Fri Sep 21 11:08:01 UTC 2018, post_id --- 177, request --- 21, duration --- 0.611
create_post - Fri Sep 21 11:08:01 UTC 2018, post_id === 178, request === 22, duration === 0.590
landing_page - Fri Sep 21 11:08:02 UTC 2018, session >>> 4, duration >>> 18.877
landing_page - Fri Sep 21 11:08:02 UTC 2018, session >>> 1, duration >>> 18.594
landing_page - Fri Sep 21 11:08:02 UTC 2018, session >>> 5, duration >>> 17.581
landing_page - Fri Sep 21 11:08:02 UTC 2018, session >>> 2, duration >>> 18.616
landing_page - Fri Sep 21 11:08:02 UTC 2018, session >>> 3, duration >>> 18.370
delete_post - Fri Sep 21 11:08:03 UTC 2018, post_id --- 178, request --- 22, duration --- 1.051
landing_page - Fri Sep 21 11:08:06 UTC 2018, session >>> 1, duration >>> 3.496
landing_page - Fri Sep 21 11:08:06 UTC 2018, session >>> 4, duration >>> 3.606
landing_page - Fri Sep 21 11:08:06 UTC 2018, session >>> 3, duration >>> 3.509
landing_page - Fri Sep 21 11:08:06 UTC 2018, session >>> 5, duration >>> 3.698
landing_page - Fri Sep 21 11:08:06 UTC 2018, session >>> 2, duration >>> 3.852
create_post - Fri Sep 21 11:08:07 UTC 2018, post_id === 179, request === 23, duration === 4.202
landing_page - Fri Sep 21 11:08:09 UTC 2018, session >>> 4, duration >>> 3.660
landing_page - Fri Sep 21 11:08:09 UTC 2018, session >>> 3, duration >>> 3.580
landing_page - Fri Sep 21 11:08:09 UTC 2018, session >>> 1, duration >>> 3.690
landing_page - Fri Sep 21 11:08:09 UTC 2018, session >>> 2, duration >>> 3.431
landing_page - Fri Sep 21 11:08:10 UTC 2018, session >>> 5, duration >>> 3.688
delete_post - Fri Sep 21 11:08:11 UTC 2018, post_id --- 179, request --- 23, duration --- 4.259
landing_page - Fri Sep 21 11:08:13 UTC 2018, session >>> 4, duration >>> 3.586
landing_page - Fri Sep 21 11:08:13 UTC 2018, session >>> 1, duration >>> 3.588
landing_page - Fri Sep 21 11:08:13 UTC 2018, session >>> 3, duration >>> 3.606
landing_page - Fri Sep 21 11:08:13 UTC 2018, session >>> 2, duration >>> 3.653
landing_page - Fri Sep 21 11:08:13 UTC 2018, session >>> 5, duration >>> 3.586
create_post - Fri Sep 21 11:08:16 UTC 2018, post_id === 180, request === 24, duration === 5.279
landing_page - Fri Sep 21 11:08:17 UTC 2018, session >>> 4, duration >>> 3.699
landing_page - Fri Sep 21 11:08:17 UTC 2018, session >>> 3, duration >>> 3.684
landing_page - Fri Sep 21 11:08:17 UTC 2018, session >>> 2, duration >>> 3.590
landing_page - Fri Sep 21 11:08:17 UTC 2018, session >>> 1, duration >>> 3.983
landing_page - Fri Sep 21 11:08:17 UTC 2018, session >>> 5, duration >>> 3.892
landing_page - Fri Sep 21 11:08:20 UTC 2018, session >>> 2, duration >>> 3.496
landing_page - Fri Sep 21 11:08:20 UTC 2018, session >>> 4, duration >>> 3.699
landing_page - Fri Sep 21 11:08:20 UTC 2018, session >>> 3, duration >>> 3.763
delete_post - Fri Sep 21 11:08:21 UTC 2018, post_id --- 180, request --- 24, duration --- 4.216
landing_page - Fri Sep 21 11:08:21 UTC 2018, session >>> 5, duration >>> 3.649
landing_page - Fri Sep 21 11:08:21 UTC 2018, session >>> 1, duration >>> 3.764
landing_page - Fri Sep 21 11:08:24 UTC 2018, session >>> 2, duration >>> 3.592
landing_page - Fri Sep 21 11:08:24 UTC 2018, session >>> 3, duration >>> 3.695
landing_page - Fri Sep 21 11:08:24 UTC 2018, session >>> 4, duration >>> 3.960
landing_page - Fri Sep 21 11:08:24 UTC 2018, session >>> 1, duration >>> 3.700
landing_page - Fri Sep 21 11:08:24 UTC 2018, session >>> 5, duration >>> 3.717
create_post - Fri Sep 21 11:08:25 UTC 2018, post_id === 181, request === 25, duration === 4.556
landing_page - Fri Sep 21 11:08:28 UTC 2018, session >>> 2, duration >>> 3.812
landing_page - Fri Sep 21 11:08:28 UTC 2018, session >>> 3, duration >>> 3.791
landing_page - Fri Sep 21 11:08:28 UTC 2018, session >>> 4, duration >>> 3.736
landing_page - Fri Sep 21 11:08:28 UTC 2018, session >>> 1, duration >>> 3.871
landing_page - Fri Sep 21 11:08:28 UTC 2018, session >>> 5, duration >>> 3.984
delete_post - Fri Sep 21 11:08:30 UTC 2018, post_id --- 181, request --- 25, duration --- 4.486
landing_page - Fri Sep 21 11:08:31 UTC 2018, session >>> 2, duration >>> 3.754
landing_page - Fri Sep 21 11:08:31 UTC 2018, session >>> 3, duration >>> 3.495
landing_page - Fri Sep 21 11:08:32 UTC 2018, session >>> 4, duration >>> 3.660
landing_page - Fri Sep 21 11:08:32 UTC 2018, session >>> 1, duration >>> 3.494
landing_page - Fri Sep 21 11:08:32 UTC 2018, session >>> 5, duration >>> 3.867
create_post - Fri Sep 21 11:08:34 UTC 2018, post_id === 182, request === 26, duration === 4.392
landing_page - Fri Sep 21 11:08:35 UTC 2018, session >>> 2, duration >>> 3.525
landing_page - Fri Sep 21 11:08:35 UTC 2018, session >>> 3, duration >>> 3.580
landing_page - Fri Sep 21 11:08:35 UTC 2018, session >>> 4, duration >>> 3.474
landing_page - Fri Sep 21 11:08:35 UTC 2018, session >>> 1, duration >>> 3.598
landing_page - Fri Sep 21 11:08:36 UTC 2018, session >>> 5, duration >>> 3.600
delete_post - Fri Sep 21 11:08:38 UTC 2018, post_id --- 182, request --- 26, duration --- 4.393
landing_page - Fri Sep 21 11:08:39 UTC 2018, session >>> 3, duration >>> 3.497
landing_page - Fri Sep 21 11:08:39 UTC 2018, session >>> 2, duration >>> 3.653
landing_page - Fri Sep 21 11:08:39 UTC 2018, session >>> 4, duration >>> 3.426
landing_page - Fri Sep 21 11:08:39 UTC 2018, session >>> 1, duration >>> 3.511
landing_page - Fri Sep 21 11:08:39 UTC 2018, session >>> 5, duration >>> 3.511
landing_page - Fri Sep 21 11:08:42 UTC 2018, session >>> 3, duration >>> 3.612
landing_page - Fri Sep 21 11:08:42 UTC 2018, session >>> 2, duration >>> 3.605
landing_page - Fri Sep 21 11:08:42 UTC 2018, session >>> 4, duration >>> 3.656
landing_page - Fri Sep 21 11:08:43 UTC 2018, session >>> 1, duration >>> 3.598
create_post - Fri Sep 21 11:08:43 UTC 2018, post_id === 183, request === 27, duration === 4.175
landing_page - Fri Sep 21 11:08:43 UTC 2018, session >>> 5, duration >>> 3.572
landing_page - Fri Sep 21 11:08:46 UTC 2018, session >>> 3, duration >>> 3.651
landing_page - Fri Sep 21 11:08:46 UTC 2018, session >>> 2, duration >>> 3.675
landing_page - Fri Sep 21 11:08:46 UTC 2018, session >>> 4, duration >>> 3.591
landing_page - Fri Sep 21 11:08:46 UTC 2018, session >>> 1, duration >>> 3.788
landing_page - Fri Sep 21 11:08:47 UTC 2018, session >>> 5, duration >>> 3.702
delete_post - Fri Sep 21 11:08:47 UTC 2018, post_id --- 183, request --- 27, duration --- 4.289
landing_page - Fri Sep 21 11:09:00 UTC 2018, session >>> 3, duration >>> 13.738
landing_page - Fri Sep 21 11:09:00 UTC 2018, session >>> 3, duration >>> 0.643
landing_page - Fri Sep 21 11:09:01 UTC 2018, session >>> 3, duration >>> 0.584
landing_page - Fri Sep 21 11:09:01 UTC 2018, session >>> 3, duration >>> 0.586
landing_page - Fri Sep 21 11:09:02 UTC 2018, session >>> 3, duration >>> 0.580
landing_page - Fri Sep 21 11:09:03 UTC 2018, session >>> 3, duration >>> 0.538
landing_page - Fri Sep 21 11:09:03 UTC 2018, session >>> 3, duration >>> 0.583
landing_page - Fri Sep 21 11:09:04 UTC 2018, session >>> 3, duration >>> 0.584
landing_page - Fri Sep 21 11:09:04 UTC 2018, session >>> 3, duration >>> 0.584
landing_page - Fri Sep 21 11:09:05 UTC 2018, session >>> 2, duration >>> 18.604
landing_page - Fri Sep 21 11:09:05 UTC 2018, session >>> 1, duration >>> 18.349
landing_page - Fri Sep 21 11:09:05 UTC 2018, session >>> 5, duration >>> 17.967
landing_page - Fri Sep 21 11:09:05 UTC 2018, session >>> 4, duration >>> 18.794
create_post - Fri Sep 21 11:09:05 UTC 2018, post_id === 184, request === 28, duration === 18.075
landing_page - Fri Sep 21 11:09:07 UTC 2018, session >>> 3, duration >>> 2.998
landing_page - Fri Sep 21 11:09:08 UTC 2018, session >>> 2, duration >>> 3.774
landing_page - Fri Sep 21 11:09:09 UTC 2018, session >>> 5, duration >>> 3.804
landing_page - Fri Sep 21 11:09:09 UTC 2018, session >>> 4, duration >>> 3.863
delete_post - Fri Sep 21 11:09:11 UTC 2018, post_id --- 184, request --- 28, duration --- 5.457
landing_page - Fri Sep 21 11:09:11 UTC 2018, session >>> 3, duration >>> 3.389
landing_page - Fri Sep 21 11:09:11 UTC 2018, session >>> 1, duration >>> 6.290
landing_page - Fri Sep 21 11:09:12 UTC 2018, session >>> 2, duration >>> 3.406
landing_page - Fri Sep 21 11:09:12 UTC 2018, session >>> 5, duration >>> 3.574
landing_page - Fri Sep 21 11:09:12 UTC 2018, session >>> 4, duration >>> 3.527
landing_page - Fri Sep 21 11:09:14 UTC 2018, session >>> 3, duration >>> 3.749
landing_page - Fri Sep 21 11:09:15 UTC 2018, session >>> 1, duration >>> 3.700
create_post - Fri Sep 21 11:09:15 UTC 2018, post_id === 185, request === 29, duration === 4.374
landing_page - Fri Sep 21 11:09:15 UTC 2018, session >>> 2, duration >>> 3.667
landing_page - Fri Sep 21 11:09:16 UTC 2018, session >>> 4, duration >>> 3.656
landing_page - Fri Sep 21 11:09:16 UTC 2018, session >>> 5, duration >>> 3.773
landing_page - Fri Sep 21 11:09:18 UTC 2018, session >>> 3, duration >>> 3.707
landing_page - Fri Sep 21 11:09:19 UTC 2018, session >>> 1, duration >>> 3.965
landing_page - Fri Sep 21 11:09:19 UTC 2018, session >>> 2, duration >>> 3.794
delete_post - Fri Sep 21 11:09:19 UTC 2018, post_id --- 185, request --- 29, duration --- 4.482
landing_page - Fri Sep 21 11:09:20 UTC 2018, session >>> 5, duration >>> 3.594
landing_page - Fri Sep 21 11:09:20 UTC 2018, session >>> 4, duration >>> 3.689
landing_page - Fri Sep 21 11:09:22 UTC 2018, session >>> 3, duration >>> 3.489
landing_page - Fri Sep 21 11:09:22 UTC 2018, session >>> 1, duration >>> 3.416
landing_page - Fri Sep 21 11:09:23 UTC 2018, session >>> 2, duration >>> 3.601
landing_page - Fri Sep 21 11:09:23 UTC 2018, session >>> 4, duration >>> 3.602
landing_page - Fri Sep 21 11:09:23 UTC 2018, session >>> 5, duration >>> 3.672
create_post - Fri Sep 21 11:09:24 UTC 2018, post_id === 186, request === 30, duration === 4.476
landing_page - Fri Sep 21 11:09:25 UTC 2018, session >>> 3, duration >>> 3.677
landing_page - Fri Sep 21 11:09:26 UTC 2018, session >>> 1, duration >>> 3.577
landing_page - Fri Sep 21 11:09:27 UTC 2018, session >>> 2, duration >>> 3.676
landing_page - Fri Sep 21 11:09:27 UTC 2018, session >>> 5, duration >>> 3.517
landing_page - Fri Sep 21 11:09:27 UTC 2018, session >>> 4, duration >>> 3.695
delete_post - Fri Sep 21 11:09:28 UTC 2018, post_id --- 186, request --- 30, duration --- 4.086
landing_page - Fri Sep 21 11:09:29 UTC 2018, session >>> 3, duration >>> 3.620
landing_page - Fri Sep 21 11:09:29 UTC 2018, session >>> 1, duration >>> 3.494
landing_page - Fri Sep 21 11:09:30 UTC 2018, session >>> 2, duration >>> 3.402
landing_page - Fri Sep 21 11:09:30 UTC 2018, session >>> 5, duration >>> 3.594
landing_page - Fri Sep 21 11:09:31 UTC 2018, session >>> 4, duration >>> 3.670
create_post - Fri Sep 21 11:09:32 UTC 2018, post_id === 187, request === 31, duration === 4.286
landing_page - Fri Sep 21 11:09:33 UTC 2018, session >>> 3, duration >>> 3.580
landing_page - Fri Sep 21 11:09:33 UTC 2018, session >>> 1, duration >>> 3.514
landing_page - Fri Sep 21 11:09:34 UTC 2018, session >>> 2, duration >>> 3.600
landing_page - Fri Sep 21 11:09:34 UTC 2018, session >>> 5, duration >>> 3.596
landing_page - Fri Sep 21 11:09:34 UTC 2018, session >>> 4, duration >>> 3.782
landing_page - Fri Sep 21 11:09:36 UTC 2018, session >>> 3, duration >>> 3.694
landing_page - Fri Sep 21 11:09:36 UTC 2018, session >>> 1, duration >>> 3.751
delete_post - Fri Sep 21 11:09:37 UTC 2018, post_id --- 187, request --- 31, duration --- 4.387
landing_page - Fri Sep 21 11:09:37 UTC 2018, session >>> 2, duration >>> 3.553
landing_page - Fri Sep 21 11:09:38 UTC 2018, session >>> 5, duration >>> 3.569
landing_page - Fri Sep 21 11:09:38 UTC 2018, session >>> 4, duration >>> 3.578
landing_page - Fri Sep 21 11:09:40 UTC 2018, session >>> 1, duration >>> 3.494
landing_page - Fri Sep 21 11:09:40 UTC 2018, session >>> 3, duration >>> 3.751
landing_page - Fri Sep 21 11:09:41 UTC 2018, session >>> 2, duration >>> 3.589
create_post - Fri Sep 21 11:09:41 UTC 2018, post_id === 188, request === 32, duration === 4.310
landing_page - Fri Sep 21 11:09:41 UTC 2018, session >>> 5, duration >>> 3.588
landing_page - Fri Sep 21 11:09:41 UTC 2018, session >>> 4, duration >>> 3.595
landing_page - Fri Sep 21 11:09:44 UTC 2018, session >>> 3, duration >>> 3.728
landing_page - Fri Sep 21 11:09:44 UTC 2018, session >>> 1, duration >>> 4.079
landing_page - Fri Sep 21 11:09:45 UTC 2018, session >>> 2, duration >>> 3.898
landing_page - Fri Sep 21 11:09:45 UTC 2018, session >>> 5, duration >>> 3.889
landing_page - Fri Sep 21 11:09:45 UTC 2018, session >>> 4, duration >>> 3.728
delete_post - Fri Sep 21 11:09:46 UTC 2018, post_id --- 188, request --- 32, duration --- 4.778
landing_page - Fri Sep 21 11:09:48 UTC 2018, session >>> 3, duration >>> 3.678
landing_page - Fri Sep 21 11:09:48 UTC 2018, session >>> 1, duration >>> 3.628
landing_page - Fri Sep 21 11:09:48 UTC 2018, session >>> 2, duration >>> 3.489
landing_page - Fri Sep 21 11:09:49 UTC 2018, session >>> 5, duration >>> 3.611
landing_page - Fri Sep 21 11:09:49 UTC 2018, session >>> 4, duration >>> 3.649
create_post - Fri Sep 21 11:09:50 UTC 2018, post_id === 189, request === 33, duration === 4.375
delete_post - Fri Sep 21 11:09:52 UTC 2018, post_id --- 189, request --- 33, duration --- 1.886
create_post - Fri Sep 21 11:09:53 UTC 2018, post_id === 190, request === 34, duration === 0.656
delete_post - Fri Sep 21 11:09:53 UTC 2018, post_id --- 190, request --- 34, duration --- 0.608
create_post - Fri Sep 21 11:09:54 UTC 2018, post_id === 191, request === 35, duration === 0.583
delete_post - Fri Sep 21 11:09:55 UTC 2018, post_id --- 191, request --- 35, duration --- 0.591
create_post - Fri Sep 21 11:09:55 UTC 2018, post_id === 192, request === 36, duration === 0.637
delete_post - Fri Sep 21 11:09:56 UTC 2018, post_id --- 192, request --- 36, duration --- 0.580
create_post - Fri Sep 21 11:09:57 UTC 2018, post_id === 193, request === 37, duration === 0.589
delete_post - Fri Sep 21 11:09:57 UTC 2018, post_id --- 193, request --- 37, duration --- 0.591
create_post - Fri Sep 21 11:09:58 UTC 2018, post_id === 194, request === 38, duration === 0.591
delete_post - Fri Sep 21 11:09:58 UTC 2018, post_id --- 194, request --- 38, duration --- 0.586
create_post - Fri Sep 21 11:09:59 UTC 2018, post_id === 195, request === 39, duration === 0.590
delete_post - Fri Sep 21 11:10:00 UTC 2018, post_id --- 195, request --- 39, duration --- 0.803
create_post - Fri Sep 21 11:10:01 UTC 2018, post_id === 196, request === 40, duration === 1.048
delete_post - Fri Sep 21 11:10:01 UTC 2018, post_id --- 196, request --- 40, duration --- 0.604
landing_page - Fri Sep 21 11:10:02 UTC 2018, session >>> 3, duration >>> 14.102
landing_page - Fri Sep 21 11:10:03 UTC 2018, session >>> 3, duration >>> 0.999
create_post - Fri Sep 21 11:10:03 UTC 2018, post_id === 197, request === 41, duration === 1.349
landing_page - Fri Sep 21 11:10:04 UTC 2018, session >>> 3, duration >>> 1.240
delete_post - Fri Sep 21 11:10:04 UTC 2018, post_id --- 197, request --- 41, duration --- 1.101
landing_page - Fri Sep 21 11:10:05 UTC 2018, session >>> 3, duration >>> 1.208
create_post - Fri Sep 21 11:10:05 UTC 2018, post_id === 198, request === 42, duration === 1.244
landing_page - Fri Sep 21 11:10:06 UTC 2018, session >>> 1, duration >>> 18.556
landing_page - Fri Sep 21 11:10:06 UTC 2018, session >>> 3, duration >>> 1.307
landing_page - Fri Sep 21 11:10:07 UTC 2018, session >>> 2, duration >>> 18.500
landing_page - Fri Sep 21 11:10:07 UTC 2018, session >>> 4, duration >>> 17.779
landing_page - Fri Sep 21 11:10:07 UTC 2018, session >>> 5, duration >>> 18.049
delete_post - Fri Sep 21 11:10:07 UTC 2018, post_id --- 198, request --- 42, duration --- 2.081
landing_page - Fri Sep 21 11:10:09 UTC 2018, session >>> 1, duration >>> 3.185
landing_page - Fri Sep 21 11:10:10 UTC 2018, session >>> 3, duration >>> 3.591
landing_page - Fri Sep 21 11:10:10 UTC 2018, session >>> 5, duration >>> 3.406
landing_page - Fri Sep 21 11:10:10 UTC 2018, session >>> 4, duration >>> 3.427
landing_page - Fri Sep 21 11:10:10 UTC 2018, session >>> 2, duration >>> 3.594
create_post - Fri Sep 21 11:10:12 UTC 2018, post_id === 199, request === 43, duration === 4.231
landing_page - Fri Sep 21 11:10:13 UTC 2018, session >>> 1, duration >>> 3.484
landing_page - Fri Sep 21 11:10:14 UTC 2018, session >>> 3, duration >>> 3.667
landing_page - Fri Sep 21 11:10:14 UTC 2018, session >>> 4, duration >>> 3.584
landing_page - Fri Sep 21 11:10:14 UTC 2018, session >>> 5, duration >>> 3.694
landing_page - Fri Sep 21 11:10:14 UTC 2018, session >>> 2, duration >>> 3.695
delete_post - Fri Sep 21 11:10:16 UTC 2018, post_id --- 199, request --- 43, duration --- 4.568
landing_page - Fri Sep 21 11:10:17 UTC 2018, session >>> 1, duration >>> 3.590
landing_page - Fri Sep 21 11:10:17 UTC 2018, session >>> 3, duration >>> 3.580
landing_page - Fri Sep 21 11:10:17 UTC 2018, session >>> 4, duration >>> 3.584
landing_page - Fri Sep 21 11:10:18 UTC 2018, session >>> 5, duration >>> 3.764
landing_page - Fri Sep 21 11:10:18 UTC 2018, session >>> 2, duration >>> 3.689
landing_page - Fri Sep 21 11:10:20 UTC 2018, session >>> 1, duration >>> 3.706
create_post - Fri Sep 21 11:10:20 UTC 2018, post_id === 200, request === 44, duration === 4.177
landing_page - Fri Sep 21 11:10:21 UTC 2018, session >>> 3, duration >>> 3.514
landing_page - Fri Sep 21 11:10:21 UTC 2018, session >>> 4, duration >>> 3.604
landing_page - Fri Sep 21 11:10:21 UTC 2018, session >>> 5, duration >>> 3.601
landing_page - Fri Sep 21 11:10:21 UTC 2018, session >>> 2, duration >>> 3.686
landing_page - Fri Sep 21 11:10:24 UTC 2018, session >>> 1, duration >>> 3.615
landing_page - Fri Sep 21 11:10:24 UTC 2018, session >>> 3, duration >>> 3.658
delete_post - Fri Sep 21 11:10:25 UTC 2018, post_id --- 200, request --- 44, duration --- 4.346
landing_page - Fri Sep 21 11:10:25 UTC 2018, session >>> 4, duration >>> 3.767
landing_page - Fri Sep 21 11:10:25 UTC 2018, session >>> 5, duration >>> 3.586
landing_page - Fri Sep 21 11:10:25 UTC 2018, session >>> 2, duration >>> 3.659
landing_page - Fri Sep 21 11:10:28 UTC 2018, session >>> 1, duration >>> 3.684
landing_page - Fri Sep 21 11:10:28 UTC 2018, session >>> 3, duration >>> 3.497
landing_page - Fri Sep 21 11:10:28 UTC 2018, session >>> 4, duration >>> 3.590
landing_page - Fri Sep 21 11:10:28 UTC 2018, session >>> 5, duration >>> 3.507
landing_page - Fri Sep 21 11:10:29 UTC 2018, session >>> 2, duration >>> 3.526
create_post - Fri Sep 21 11:10:29 UTC 2018, post_id === 201, request === 45, duration === 4.413
landing_page - Fri Sep 21 11:10:31 UTC 2018, session >>> 1, duration >>> 3.854
landing_page - Fri Sep 21 11:10:32 UTC 2018, session >>> 3, duration >>> 3.622
landing_page - Fri Sep 21 11:10:32 UTC 2018, session >>> 4, duration >>> 3.687
landing_page - Fri Sep 21 11:10:32 UTC 2018, session >>> 5, duration >>> 3.770
landing_page - Fri Sep 21 11:10:32 UTC 2018, session >>> 2, duration >>> 3.764
delete_post - Fri Sep 21 11:10:34 UTC 2018, post_id --- 201, request --- 45, duration --- 4.549
landing_page - Fri Sep 21 11:10:35 UTC 2018, session >>> 1, duration >>> 3.588
landing_page - Fri Sep 21 11:10:35 UTC 2018, session >>> 3, duration >>> 3.687
landing_page - Fri Sep 21 11:10:36 UTC 2018, session >>> 4, duration >>> 3.513
landing_page - Fri Sep 21 11:10:36 UTC 2018, session >>> 5, duration >>> 3.600
landing_page - Fri Sep 21 11:10:36 UTC 2018, session >>> 2, duration >>> 3.575
create_post - Fri Sep 21 11:10:38 UTC 2018, post_id === 202, request === 46, duration === 4.311
landing_page - Fri Sep 21 11:10:39 UTC 2018, session >>> 1, duration >>> 3.524
landing_page - Fri Sep 21 11:10:39 UTC 2018, session >>> 3, duration >>> 3.659
landing_page - Fri Sep 21 11:10:39 UTC 2018, session >>> 4, duration >>> 3.653
landing_page - Fri Sep 21 11:10:39 UTC 2018, session >>> 2, duration >>> 3.525
landing_page - Fri Sep 21 11:10:40 UTC 2018, session >>> 5, duration >>> 3.778
landing_page - Fri Sep 21 11:10:42 UTC 2018, session >>> 1, duration >>> 3.765
delete_post - Fri Sep 21 11:10:42 UTC 2018, post_id --- 202, request --- 46, duration --- 4.451
landing_page - Fri Sep 21 11:10:43 UTC 2018, session >>> 3, duration >>> 3.585
landing_page - Fri Sep 21 11:10:43 UTC 2018, session >>> 4, duration >>> 3.414
landing_page - Fri Sep 21 11:10:43 UTC 2018, session >>> 5, duration >>> 3.177
landing_page - Fri Sep 21 11:10:43 UTC 2018, session >>> 2, duration >>> 3.266
