landing_page - Fri Sep 21 13:03:30 UTC 2018, session >>> 1, duration >>> 5.516
landing_page - Fri Sep 21 13:03:30 UTC 2018, session >>> 3, duration >>> 5.517
landing_page - Fri Sep 21 13:03:30 UTC 2018, session >>> 4, duration >>> 5.516
landing_page - Fri Sep 21 13:03:30 UTC 2018, session >>> 5, duration >>> 5.520
landing_page - Fri Sep 21 13:03:30 UTC 2018, session >>> 2, duration >>> 5.515
create_post - Fri Sep 21 13:03:30 UTC 2018, post_id === 61, request === 1, duration === 6.012
landing_page - Fri Sep 21 13:03:36 UTC 2018, session >>> 2, duration >>> 5.517
landing_page - Fri Sep 21 13:03:36 UTC 2018, session >>> 4, duration >>> 5.516
landing_page - Fri Sep 21 13:03:36 UTC 2018, session >>> 5, duration >>> 5.517
landing_page - Fri Sep 21 13:03:36 UTC 2018, session >>> 1, duration >>> 5.516
landing_page - Fri Sep 21 13:03:36 UTC 2018, session >>> 3, duration >>> 5.521
delete_post - Fri Sep 21 13:03:36 UTC 2018, post_id --- 61, request --- 1, duration --- 5.517
landing_page - Fri Sep 21 13:03:41 UTC 2018, session >>> 2, duration >>> 5.518
landing_page - Fri Sep 21 13:03:41 UTC 2018, session >>> 3, duration >>> 5.518
landing_page - Fri Sep 21 13:03:41 UTC 2018, session >>> 4, duration >>> 5.516
landing_page - Fri Sep 21 13:03:41 UTC 2018, session >>> 5, duration >>> 5.518
landing_page - Fri Sep 21 13:03:41 UTC 2018, session >>> 1, duration >>> 5.517
create_post - Fri Sep 21 13:03:43 UTC 2018, post_id === 62, request === 2, duration === 6.698
landing_page - Fri Sep 21 13:03:47 UTC 2018, session >>> 2, duration >>> 5.518
landing_page - Fri Sep 21 13:03:47 UTC 2018, session >>> 5, duration >>> 5.515
landing_page - Fri Sep 21 13:03:47 UTC 2018, session >>> 4, duration >>> 5.520
landing_page - Fri Sep 21 13:03:47 UTC 2018, session >>> 1, duration >>> 5.520
landing_page - Fri Sep 21 13:03:47 UTC 2018, session >>> 3, duration >>> 5.521
delete_post - Fri Sep 21 13:03:48 UTC 2018, post_id --- 62, request --- 2, duration --- 5.517
landing_page - Fri Sep 21 13:03:52 UTC 2018, session >>> 4, duration >>> 5.517
landing_page - Fri Sep 21 13:03:52 UTC 2018, session >>> 3, duration >>> 5.519
landing_page - Fri Sep 21 13:03:52 UTC 2018, session >>> 5, duration >>> 5.519
landing_page - Fri Sep 21 13:03:52 UTC 2018, session >>> 2, duration >>> 5.518
landing_page - Fri Sep 21 13:03:52 UTC 2018, session >>> 1, duration >>> 5.521
create_post - Fri Sep 21 13:03:54 UTC 2018, post_id === 63, request === 3, duration === 6.095
landing_page - Fri Sep 21 13:03:58 UTC 2018, session >>> 3, duration >>> 5.519
landing_page - Fri Sep 21 13:03:58 UTC 2018, session >>> 5, duration >>> 5.518
landing_page - Fri Sep 21 13:03:58 UTC 2018, session >>> 4, duration >>> 5.520
landing_page - Fri Sep 21 13:03:58 UTC 2018, session >>> 1, duration >>> 5.518
landing_page - Fri Sep 21 13:03:58 UTC 2018, session >>> 2, duration >>> 5.519
delete_post - Fri Sep 21 13:04:00 UTC 2018, post_id --- 63, request --- 3, duration --- 5.517
landing_page - Fri Sep 21 13:04:03 UTC 2018, session >>> 5, duration >>> 5.518
landing_page - Fri Sep 21 13:04:03 UTC 2018, session >>> 3, duration >>> 5.520
landing_page - Fri Sep 21 13:04:03 UTC 2018, session >>> 2, duration >>> 5.518
landing_page - Fri Sep 21 13:04:03 UTC 2018, session >>> 1, duration >>> 5.519
landing_page - Fri Sep 21 13:04:03 UTC 2018, session >>> 4, duration >>> 5.518
create_post - Fri Sep 21 13:04:07 UTC 2018, post_id === 64, request === 4, duration === 6.841
landing_page - Fri Sep 21 13:04:09 UTC 2018, session >>> 4, duration >>> 5.518
landing_page - Fri Sep 21 13:04:09 UTC 2018, session >>> 1, duration >>> 5.519
landing_page - Fri Sep 21 13:04:09 UTC 2018, session >>> 5, duration >>> 5.516
landing_page - Fri Sep 21 13:04:09 UTC 2018, session >>> 2, duration >>> 5.519
landing_page - Fri Sep 21 13:04:09 UTC 2018, session >>> 3, duration >>> 5.520
delete_post - Fri Sep 21 13:04:12 UTC 2018, post_id --- 64, request --- 4, duration --- 5.518
landing_page - Fri Sep 21 13:04:14 UTC 2018, session >>> 3, duration >>> 5.518
landing_page - Fri Sep 21 13:04:14 UTC 2018, session >>> 4, duration >>> 5.516
landing_page - Fri Sep 21 13:04:14 UTC 2018, session >>> 2, duration >>> 5.517
landing_page - Fri Sep 21 13:04:14 UTC 2018, session >>> 5, duration >>> 5.518
landing_page - Fri Sep 21 13:04:14 UTC 2018, session >>> 1, duration >>> 5.518
create_post - Fri Sep 21 13:04:18 UTC 2018, post_id === 65, request === 5, duration === 6.012
landing_page - Fri Sep 21 13:04:20 UTC 2018, session >>> 2, duration >>> 5.517
landing_page - Fri Sep 21 13:04:20 UTC 2018, session >>> 3, duration >>> 5.520
landing_page - Fri Sep 21 13:04:20 UTC 2018, session >>> 5, duration >>> 5.520
landing_page - Fri Sep 21 13:04:20 UTC 2018, session >>> 4, duration >>> 5.518
landing_page - Fri Sep 21 13:04:20 UTC 2018, session >>> 1, duration >>> 5.521
delete_post - Fri Sep 21 13:04:24 UTC 2018, post_id --- 65, request --- 5, duration --- 5.517
landing_page - Fri Sep 21 13:04:26 UTC 2018, session >>> 2, duration >>> 5.520
landing_page - Fri Sep 21 13:04:26 UTC 2018, session >>> 4, duration >>> 5.519
landing_page - Fri Sep 21 13:04:26 UTC 2018, session >>> 1, duration >>> 5.518
landing_page - Fri Sep 21 13:04:26 UTC 2018, session >>> 5, duration >>> 5.518
landing_page - Fri Sep 21 13:04:26 UTC 2018, session >>> 3, duration >>> 5.518
create_post - Fri Sep 21 13:04:31 UTC 2018, post_id === 66, request === 6, duration === 6.835
landing_page - Fri Sep 21 13:04:31 UTC 2018, session >>> 2, duration >>> 5.518
landing_page - Fri Sep 21 13:04:31 UTC 2018, session >>> 5, duration >>> 5.520
landing_page - Fri Sep 21 13:04:31 UTC 2018, session >>> 4, duration >>> 5.518
landing_page - Fri Sep 21 13:04:31 UTC 2018, session >>> 3, duration >>> 5.521
landing_page - Fri Sep 21 13:04:31 UTC 2018, session >>> 1, duration >>> 5.517
delete_post - Fri Sep 21 13:04:36 UTC 2018, post_id --- 66, request --- 6, duration --- 5.517
landing_page - Fri Sep 21 13:04:37 UTC 2018, session >>> 4, duration >>> 5.521
landing_page - Fri Sep 21 13:04:37 UTC 2018, session >>> 5, duration >>> 5.518
landing_page - Fri Sep 21 13:04:37 UTC 2018, session >>> 3, duration >>> 5.518
landing_page - Fri Sep 21 13:04:37 UTC 2018, session >>> 1, duration >>> 5.516
landing_page - Fri Sep 21 13:04:37 UTC 2018, session >>> 2, duration >>> 5.521
create_post - Fri Sep 21 13:04:42 UTC 2018, post_id === 67, request === 7, duration === 5.964
landing_page - Fri Sep 21 13:04:42 UTC 2018, session >>> 2, duration >>> 5.522
landing_page - Fri Sep 21 13:04:42 UTC 2018, session >>> 5, duration >>> 5.519
landing_page - Fri Sep 21 13:04:42 UTC 2018, session >>> 4, duration >>> 5.522
landing_page - Fri Sep 21 13:04:42 UTC 2018, session >>> 1, duration >>> 5.516
landing_page - Fri Sep 21 13:04:42 UTC 2018, session >>> 3, duration >>> 5.517
delete_post - Fri Sep 21 13:04:48 UTC 2018, post_id --- 67, request --- 7, duration --- 5.519
landing_page - Fri Sep 21 13:04:48 UTC 2018, session >>> 5, duration >>> 5.522
landing_page - Fri Sep 21 13:04:48 UTC 2018, session >>> 4, duration >>> 5.524
landing_page - Fri Sep 21 13:04:48 UTC 2018, session >>> 3, duration >>> 5.517
landing_page - Fri Sep 21 13:04:48 UTC 2018, session >>> 2, duration >>> 5.517
landing_page - Fri Sep 21 13:04:48 UTC 2018, session >>> 1, duration >>> 5.515
landing_page - Fri Sep 21 13:04:53 UTC 2018, session >>> 1, duration >>> 5.517
landing_page - Fri Sep 21 13:04:53 UTC 2018, session >>> 4, duration >>> 5.517
landing_page - Fri Sep 21 13:04:53 UTC 2018, session >>> 2, duration >>> 5.521
landing_page - Fri Sep 21 13:04:53 UTC 2018, session >>> 5, duration >>> 5.518
landing_page - Fri Sep 21 13:04:53 UTC 2018, session >>> 3, duration >>> 5.515
create_post - Fri Sep 21 13:04:55 UTC 2018, post_id === 68, request === 8, duration === 6.962
landing_page - Fri Sep 21 13:04:59 UTC 2018, session >>> 3, duration >>> 5.520
landing_page - Fri Sep 21 13:04:59 UTC 2018, session >>> 1, duration >>> 5.517
landing_page - Fri Sep 21 13:04:59 UTC 2018, session >>> 2, duration >>> 5.520
landing_page - Fri Sep 21 13:04:59 UTC 2018, session >>> 4, duration >>> 5.516
landing_page - Fri Sep 21 13:04:59 UTC 2018, session >>> 5, duration >>> 5.518
delete_post - Fri Sep 21 13:05:00 UTC 2018, post_id --- 68, request --- 8, duration --- 5.519
landing_page - Fri Sep 21 13:05:05 UTC 2018, session >>> 2, duration >>> 5.518
landing_page - Fri Sep 21 13:05:05 UTC 2018, session >>> 3, duration >>> 5.517
landing_page - Fri Sep 21 13:05:05 UTC 2018, session >>> 1, duration >>> 5.518
landing_page - Fri Sep 21 13:05:05 UTC 2018, session >>> 5, duration >>> 5.518
landing_page - Fri Sep 21 13:05:05 UTC 2018, session >>> 4, duration >>> 5.516
create_post - Fri Sep 21 13:05:06 UTC 2018, post_id === 69, request === 9, duration === 6.004
landing_page - Fri Sep 21 13:05:10 UTC 2018, session >>> 2, duration >>> 5.519
landing_page - Fri Sep 21 13:05:10 UTC 2018, session >>> 3, duration >>> 5.522
landing_page - Fri Sep 21 13:05:10 UTC 2018, session >>> 5, duration >>> 5.516
landing_page - Fri Sep 21 13:05:10 UTC 2018, session >>> 1, duration >>> 5.518
landing_page - Fri Sep 21 13:05:10 UTC 2018, session >>> 4, duration >>> 5.523
delete_post - Fri Sep 21 13:05:12 UTC 2018, post_id --- 69, request --- 9, duration --- 5.516
landing_page - Fri Sep 21 13:05:16 UTC 2018, session >>> 3, duration >>> 5.518
landing_page - Fri Sep 21 13:05:16 UTC 2018, session >>> 5, duration >>> 5.517
landing_page - Fri Sep 21 13:05:16 UTC 2018, session >>> 2, duration >>> 5.515
landing_page - Fri Sep 21 13:05:16 UTC 2018, session >>> 4, duration >>> 5.518
landing_page - Fri Sep 21 13:05:16 UTC 2018, session >>> 1, duration >>> 5.516
create_post - Fri Sep 21 13:05:19 UTC 2018, post_id === 70, request === 10, duration === 6.866
landing_page - Fri Sep 21 13:05:21 UTC 2018, session >>> 2, duration >>> 5.517
landing_page - Fri Sep 21 13:05:21 UTC 2018, session >>> 1, duration >>> 5.520
landing_page - Fri Sep 21 13:05:21 UTC 2018, session >>> 4, duration >>> 5.521
landing_page - Fri Sep 21 13:05:21 UTC 2018, session >>> 3, duration >>> 5.518
landing_page - Fri Sep 21 13:05:21 UTC 2018, session >>> 5, duration >>> 5.518
delete_post - Fri Sep 21 13:05:24 UTC 2018, post_id --- 70, request --- 10, duration --- 5.516
landing_page - Fri Sep 21 13:05:27 UTC 2018, session >>> 2, duration >>> 5.515
landing_page - Fri Sep 21 13:05:27 UTC 2018, session >>> 1, duration >>> 5.515
landing_page - Fri Sep 21 13:05:27 UTC 2018, session >>> 5, duration >>> 5.518
landing_page - Fri Sep 21 13:05:27 UTC 2018, session >>> 3, duration >>> 5.517
landing_page - Fri Sep 21 13:05:27 UTC 2018, session >>> 4, duration >>> 5.519
create_post - Fri Sep 21 13:05:30 UTC 2018, post_id === 71, request === 11, duration === 5.985
landing_page - Fri Sep 21 13:05:32 UTC 2018, session >>> 2, duration >>> 5.519
landing_page - Fri Sep 21 13:05:32 UTC 2018, session >>> 5, duration >>> 5.520
landing_page - Fri Sep 21 13:05:32 UTC 2018, session >>> 4, duration >>> 5.520
landing_page - Fri Sep 21 13:05:32 UTC 2018, session >>> 3, duration >>> 5.522
landing_page - Fri Sep 21 13:05:32 UTC 2018, session >>> 1, duration >>> 5.515
delete_post - Fri Sep 21 13:05:36 UTC 2018, post_id --- 71, request --- 11, duration --- 5.517
landing_page - Fri Sep 21 13:05:38 UTC 2018, session >>> 2, duration >>> 5.516
landing_page - Fri Sep 21 13:05:38 UTC 2018, session >>> 1, duration >>> 5.516
landing_page - Fri Sep 21 13:05:38 UTC 2018, session >>> 5, duration >>> 5.518
landing_page - Fri Sep 21 13:05:38 UTC 2018, session >>> 3, duration >>> 5.516
landing_page - Fri Sep 21 13:05:38 UTC 2018, session >>> 4, duration >>> 5.516
create_post - Fri Sep 21 13:05:43 UTC 2018, post_id === 72, request === 12, duration === 6.809
landing_page - Fri Sep 21 13:05:44 UTC 2018, session >>> 2, duration >>> 5.518
landing_page - Fri Sep 21 13:05:44 UTC 2018, session >>> 5, duration >>> 5.519
landing_page - Fri Sep 21 13:05:44 UTC 2018, session >>> 3, duration >>> 5.517
landing_page - Fri Sep 21 13:05:44 UTC 2018, session >>> 1, duration >>> 5.521
landing_page - Fri Sep 21 13:05:44 UTC 2018, session >>> 4, duration >>> 5.517
delete_post - Fri Sep 21 13:05:48 UTC 2018, post_id --- 72, request --- 12, duration --- 5.517
landing_page - Fri Sep 21 13:05:49 UTC 2018, session >>> 5, duration >>> 5.521
landing_page - Fri Sep 21 13:05:49 UTC 2018, session >>> 2, duration >>> 5.516
landing_page - Fri Sep 21 13:05:49 UTC 2018, session >>> 1, duration >>> 5.520
landing_page - Fri Sep 21 13:05:49 UTC 2018, session >>> 3, duration >>> 5.516
landing_page - Fri Sep 21 13:05:49 UTC 2018, session >>> 4, duration >>> 5.522
create_post - Fri Sep 21 13:05:54 UTC 2018, post_id === 73, request === 13, duration === 6.021
landing_page - Fri Sep 21 13:05:55 UTC 2018, session >>> 5, duration >>> 5.520
landing_page - Fri Sep 21 13:05:55 UTC 2018, session >>> 3, duration >>> 5.517
landing_page - Fri Sep 21 13:05:55 UTC 2018, session >>> 1, duration >>> 5.519
landing_page - Fri Sep 21 13:05:55 UTC 2018, session >>> 2, duration >>> 5.517
landing_page - Fri Sep 21 13:05:55 UTC 2018, session >>> 4, duration >>> 5.516
delete_post - Fri Sep 21 13:06:00 UTC 2018, post_id --- 73, request --- 13, duration --- 5.517
landing_page - Fri Sep 21 13:06:00 UTC 2018, session >>> 4, duration >>> 5.518
landing_page - Fri Sep 21 13:06:00 UTC 2018, session >>> 1, duration >>> 5.517
landing_page - Fri Sep 21 13:06:00 UTC 2018, session >>> 5, duration >>> 5.514
landing_page - Fri Sep 21 13:06:00 UTC 2018, session >>> 2, duration >>> 5.516
landing_page - Fri Sep 21 13:06:00 UTC 2018, session >>> 3, duration >>> 5.518
landing_page - Fri Sep 21 13:06:06 UTC 2018, session >>> 5, duration >>> 5.517
landing_page - Fri Sep 21 13:06:06 UTC 2018, session >>> 4, duration >>> 5.519
landing_page - Fri Sep 21 13:06:06 UTC 2018, session >>> 1, duration >>> 5.516
landing_page - Fri Sep 21 13:06:06 UTC 2018, session >>> 3, duration >>> 5.522
landing_page - Fri Sep 21 13:06:06 UTC 2018, session >>> 2, duration >>> 5.517
create_post - Fri Sep 21 13:06:07 UTC 2018, post_id === 74, request === 14, duration === 6.976
landing_page - Fri Sep 21 13:06:11 UTC 2018, session >>> 2, duration >>> 5.518
landing_page - Fri Sep 21 13:06:11 UTC 2018, session >>> 3, duration >>> 5.518
landing_page - Fri Sep 21 13:06:11 UTC 2018, session >>> 4, duration >>> 5.524
landing_page - Fri Sep 21 13:06:11 UTC 2018, session >>> 5, duration >>> 5.522
landing_page - Fri Sep 21 13:06:11 UTC 2018, session >>> 1, duration >>> 5.516
delete_post - Fri Sep 21 13:06:12 UTC 2018, post_id --- 74, request --- 14, duration --- 5.517
landing_page - Fri Sep 21 13:06:17 UTC 2018, session >>> 4, duration >>> 5.516
landing_page - Fri Sep 21 13:06:17 UTC 2018, session >>> 5, duration >>> 5.516
landing_page - Fri Sep 21 13:06:17 UTC 2018, session >>> 1, duration >>> 5.519
landing_page - Fri Sep 21 13:06:17 UTC 2018, session >>> 2, duration >>> 5.521
landing_page - Fri Sep 21 13:06:17 UTC 2018, session >>> 3, duration >>> 5.516
create_post - Fri Sep 21 13:06:18 UTC 2018, post_id === 75, request === 15, duration === 5.962
landing_page - Fri Sep 21 13:06:22 UTC 2018, session >>> 1, duration >>> 5.519
landing_page - Fri Sep 21 13:06:22 UTC 2018, session >>> 5, duration >>> 5.520
landing_page - Fri Sep 21 13:06:22 UTC 2018, session >>> 3, duration >>> 5.518
landing_page - Fri Sep 21 13:06:22 UTC 2018, session >>> 4, duration >>> 5.519
landing_page - Fri Sep 21 13:06:22 UTC 2018, session >>> 2, duration >>> 5.518
delete_post - Fri Sep 21 13:06:24 UTC 2018, post_id --- 75, request --- 15, duration --- 5.517
landing_page - Fri Sep 21 13:06:28 UTC 2018, session >>> 1, duration >>> 5.516
landing_page - Fri Sep 21 13:06:28 UTC 2018, session >>> 3, duration >>> 5.519
landing_page - Fri Sep 21 13:06:28 UTC 2018, session >>> 2, duration >>> 5.519
landing_page - Fri Sep 21 13:06:28 UTC 2018, session >>> 5, duration >>> 5.517
landing_page - Fri Sep 21 13:06:28 UTC 2018, session >>> 4, duration >>> 5.517
create_post - Fri Sep 21 13:06:31 UTC 2018, post_id === 76, request === 16, duration === 6.879
landing_page - Fri Sep 21 13:06:34 UTC 2018, session >>> 5, duration >>> 5.520
landing_page - Fri Sep 21 13:06:34 UTC 2018, session >>> 3, duration >>> 5.518
landing_page - Fri Sep 21 13:06:34 UTC 2018, session >>> 4, duration >>> 5.517
landing_page - Fri Sep 21 13:06:34 UTC 2018, session >>> 2, duration >>> 5.515
landing_page - Fri Sep 21 13:06:34 UTC 2018, session >>> 1, duration >>> 5.515
delete_post - Fri Sep 21 13:06:36 UTC 2018, post_id --- 76, request --- 16, duration --- 5.517
landing_page - Fri Sep 21 13:06:39 UTC 2018, session >>> 1, duration >>> 5.516
landing_page - Fri Sep 21 13:06:39 UTC 2018, session >>> 4, duration >>> 5.520
landing_page - Fri Sep 21 13:06:39 UTC 2018, session >>> 2, duration >>> 5.515
landing_page - Fri Sep 21 13:06:39 UTC 2018, session >>> 5, duration >>> 5.518
landing_page - Fri Sep 21 13:06:39 UTC 2018, session >>> 3, duration >>> 5.517
create_post - Fri Sep 21 13:06:42 UTC 2018, post_id === 77, request === 17, duration === 5.963
landing_page - Fri Sep 21 13:06:45 UTC 2018, session >>> 4, duration >>> 5.517
landing_page - Fri Sep 21 13:06:45 UTC 2018, session >>> 5, duration >>> 5.518
landing_page - Fri Sep 21 13:06:45 UTC 2018, session >>> 2, duration >>> 5.521
landing_page - Fri Sep 21 13:06:45 UTC 2018, session >>> 1, duration >>> 5.516
landing_page - Fri Sep 21 13:06:45 UTC 2018, session >>> 3, duration >>> 5.516
delete_post - Fri Sep 21 13:06:48 UTC 2018, post_id --- 77, request --- 17, duration --- 5.519
landing_page - Fri Sep 21 13:06:51 UTC 2018, session >>> 5, duration >>> 5.915
landing_page - Fri Sep 21 13:06:51 UTC 2018, session >>> 3, duration >>> 5.924
landing_page - Fri Sep 21 13:06:51 UTC 2018, session >>> 1, duration >>> 5.918
landing_page - Fri Sep 21 13:06:51 UTC 2018, session >>> 4, duration >>> 5.945
landing_page - Fri Sep 21 13:06:51 UTC 2018, session >>> 2, duration >>> 6.717
create_post - Fri Sep 21 13:06:54 UTC 2018, post_id === 78, request === 18, duration === 5.993
landing_page - Fri Sep 21 13:06:56 UTC 2018, session >>> 5, duration >>> 5.516
landing_page - Fri Sep 21 13:06:56 UTC 2018, session >>> 1, duration >>> 5.517
landing_page - Fri Sep 21 13:06:56 UTC 2018, session >>> 3, duration >>> 5.517
landing_page - Fri Sep 21 13:06:56 UTC 2018, session >>> 4, duration >>> 5.515
landing_page - Fri Sep 21 13:06:57 UTC 2018, session >>> 2, duration >>> 5.515
delete_post - Fri Sep 21 13:06:59 UTC 2018, post_id --- 78, request --- 18, duration --- 5.519
landing_page - Fri Sep 21 13:07:02 UTC 2018, session >>> 5, duration >>> 5.518
landing_page - Fri Sep 21 13:07:02 UTC 2018, session >>> 4, duration >>> 5.518
landing_page - Fri Sep 21 13:07:02 UTC 2018, session >>> 3, duration >>> 5.518
landing_page - Fri Sep 21 13:07:02 UTC 2018, session >>> 1, duration >>> 5.515
landing_page - Fri Sep 21 13:07:03 UTC 2018, session >>> 2, duration >>> 5.516
create_post - Fri Sep 21 13:07:06 UTC 2018, post_id === 79, request === 19, duration === 6.760
landing_page - Fri Sep 21 13:07:07 UTC 2018, session >>> 5, duration >>> 5.516
landing_page - Fri Sep 21 13:07:07 UTC 2018, session >>> 4, duration >>> 5.515
landing_page - Fri Sep 21 13:07:07 UTC 2018, session >>> 3, duration >>> 5.519
landing_page - Fri Sep 21 13:07:07 UTC 2018, session >>> 1, duration >>> 5.518
landing_page - Fri Sep 21 13:07:08 UTC 2018, session >>> 2, duration >>> 5.515
delete_post - Fri Sep 21 13:07:12 UTC 2018, post_id --- 79, request --- 19, duration --- 5.519
landing_page - Fri Sep 21 13:07:13 UTC 2018, session >>> 3, duration >>> 5.515
landing_page - Fri Sep 21 13:07:13 UTC 2018, session >>> 1, duration >>> 5.517
landing_page - Fri Sep 21 13:07:13 UTC 2018, session >>> 5, duration >>> 5.516
landing_page - Fri Sep 21 13:07:13 UTC 2018, session >>> 4, duration >>> 5.518
landing_page - Fri Sep 21 13:07:14 UTC 2018, session >>> 2, duration >>> 5.515
create_post - Fri Sep 21 13:07:18 UTC 2018, post_id === 80, request === 20, duration === 5.936
landing_page - Fri Sep 21 13:07:18 UTC 2018, session >>> 3, duration >>> 5.515
landing_page - Fri Sep 21 13:07:18 UTC 2018, session >>> 1, duration >>> 5.516
landing_page - Fri Sep 21 13:07:18 UTC 2018, session >>> 5, duration >>> 5.516
landing_page - Fri Sep 21 13:07:18 UTC 2018, session >>> 4, duration >>> 5.517
landing_page - Fri Sep 21 13:07:19 UTC 2018, session >>> 2, duration >>> 5.515
delete_post - Fri Sep 21 13:07:23 UTC 2018, post_id --- 80, request --- 20, duration --- 5.517
landing_page - Fri Sep 21 13:07:24 UTC 2018, session >>> 3, duration >>> 5.520
landing_page - Fri Sep 21 13:07:24 UTC 2018, session >>> 1, duration >>> 5.516
landing_page - Fri Sep 21 13:07:24 UTC 2018, session >>> 5, duration >>> 5.515
landing_page - Fri Sep 21 13:07:24 UTC 2018, session >>> 4, duration >>> 5.518
landing_page - Fri Sep 21 13:07:25 UTC 2018, session >>> 2, duration >>> 5.515
landing_page - Fri Sep 21 13:07:30 UTC 2018, session >>> 4, duration >>> 5.515
landing_page - Fri Sep 21 13:07:30 UTC 2018, session >>> 1, duration >>> 5.517
landing_page - Fri Sep 21 13:07:30 UTC 2018, session >>> 5, duration >>> 5.518
landing_page - Fri Sep 21 13:07:30 UTC 2018, session >>> 3, duration >>> 5.515
create_post - Fri Sep 21 13:07:30 UTC 2018, post_id === 81, request === 21, duration === 6.880
landing_page - Fri Sep 21 13:07:30 UTC 2018, session >>> 2, duration >>> 5.516
landing_page - Fri Sep 21 13:07:35 UTC 2018, session >>> 4, duration >>> 5.516
landing_page - Fri Sep 21 13:07:35 UTC 2018, session >>> 5, duration >>> 5.516
landing_page - Fri Sep 21 13:07:35 UTC 2018, session >>> 3, duration >>> 5.518
landing_page - Fri Sep 21 13:07:35 UTC 2018, session >>> 1, duration >>> 5.516
delete_post - Fri Sep 21 13:07:36 UTC 2018, post_id --- 81, request --- 21, duration --- 5.517
landing_page - Fri Sep 21 13:07:36 UTC 2018, session >>> 2, duration >>> 5.515
landing_page - Fri Sep 21 13:07:41 UTC 2018, session >>> 4, duration >>> 5.517
landing_page - Fri Sep 21 13:07:41 UTC 2018, session >>> 1, duration >>> 5.516
landing_page - Fri Sep 21 13:07:41 UTC 2018, session >>> 5, duration >>> 5.516
landing_page - Fri Sep 21 13:07:41 UTC 2018, session >>> 3, duration >>> 5.515
landing_page - Fri Sep 21 13:07:41 UTC 2018, session >>> 2, duration >>> 5.516
create_post - Fri Sep 21 13:07:42 UTC 2018, post_id === 82, request === 22, duration === 6.007
landing_page - Fri Sep 21 13:07:46 UTC 2018, session >>> 4, duration >>> 5.515
landing_page - Fri Sep 21 13:07:46 UTC 2018, session >>> 5, duration >>> 5.516
landing_page - Fri Sep 21 13:07:46 UTC 2018, session >>> 3, duration >>> 5.515
landing_page - Fri Sep 21 13:07:46 UTC 2018, session >>> 1, duration >>> 5.516
landing_page - Fri Sep 21 13:07:47 UTC 2018, session >>> 2, duration >>> 5.515
delete_post - Fri Sep 21 13:07:47 UTC 2018, post_id --- 82, request --- 22, duration --- 5.517
landing_page - Fri Sep 21 13:07:52 UTC 2018, session >>> 4, duration >>> 5.515
landing_page - Fri Sep 21 13:07:52 UTC 2018, session >>> 5, duration >>> 5.515
landing_page - Fri Sep 21 13:07:52 UTC 2018, session >>> 3, duration >>> 5.517
landing_page - Fri Sep 21 13:07:52 UTC 2018, session >>> 1, duration >>> 5.517
landing_page - Fri Sep 21 13:07:52 UTC 2018, session >>> 2, duration >>> 5.515
create_post - Fri Sep 21 13:07:54 UTC 2018, post_id === 83, request === 23, duration === 6.699
landing_page - Fri Sep 21 13:07:57 UTC 2018, session >>> 4, duration >>> 5.514
landing_page - Fri Sep 21 13:07:57 UTC 2018, session >>> 5, duration >>> 5.516
landing_page - Fri Sep 21 13:07:57 UTC 2018, session >>> 3, duration >>> 5.516
landing_page - Fri Sep 21 13:07:57 UTC 2018, session >>> 1, duration >>> 5.516
landing_page - Fri Sep 21 13:07:58 UTC 2018, session >>> 2, duration >>> 5.515
delete_post - Fri Sep 21 13:07:59 UTC 2018, post_id --- 83, request --- 23, duration --- 5.517
landing_page - Fri Sep 21 13:08:03 UTC 2018, session >>> 4, duration >>> 5.516
landing_page - Fri Sep 21 13:08:03 UTC 2018, session >>> 5, duration >>> 5.515
landing_page - Fri Sep 21 13:08:03 UTC 2018, session >>> 1, duration >>> 5.517
landing_page - Fri Sep 21 13:08:03 UTC 2018, session >>> 3, duration >>> 5.517
landing_page - Fri Sep 21 13:08:03 UTC 2018, session >>> 2, duration >>> 5.515
create_post - Fri Sep 21 13:08:05 UTC 2018, post_id === 84, request === 24, duration === 5.988
landing_page - Fri Sep 21 13:08:08 UTC 2018, session >>> 4, duration >>> 5.516
landing_page - Fri Sep 21 13:08:08 UTC 2018, session >>> 5, duration >>> 5.515
landing_page - Fri Sep 21 13:08:08 UTC 2018, session >>> 1, duration >>> 5.516
landing_page - Fri Sep 21 13:08:08 UTC 2018, session >>> 3, duration >>> 5.515
landing_page - Fri Sep 21 13:08:09 UTC 2018, session >>> 2, duration >>> 5.515
delete_post - Fri Sep 21 13:08:11 UTC 2018, post_id --- 84, request --- 24, duration --- 5.517
landing_page - Fri Sep 21 13:08:14 UTC 2018, session >>> 4, duration >>> 5.515
landing_page - Fri Sep 21 13:08:14 UTC 2018, session >>> 3, duration >>> 5.516
landing_page - Fri Sep 21 13:08:14 UTC 2018, session >>> 5, duration >>> 5.515
landing_page - Fri Sep 21 13:08:14 UTC 2018, session >>> 1, duration >>> 5.517
landing_page - Fri Sep 21 13:08:14 UTC 2018, session >>> 2, duration >>> 5.515
create_post - Fri Sep 21 13:08:18 UTC 2018, post_id === 85, request === 25, duration === 6.805
landing_page - Fri Sep 21 13:08:19 UTC 2018, session >>> 4, duration >>> 5.515
landing_page - Fri Sep 21 13:08:19 UTC 2018, session >>> 5, duration >>> 5.515
landing_page - Fri Sep 21 13:08:19 UTC 2018, session >>> 3, duration >>> 5.517
landing_page - Fri Sep 21 13:08:19 UTC 2018, session >>> 1, duration >>> 5.516
landing_page - Fri Sep 21 13:08:20 UTC 2018, session >>> 2, duration >>> 5.515
delete_post - Fri Sep 21 13:08:23 UTC 2018, post_id --- 85, request --- 25, duration --- 5.517
landing_page - Fri Sep 21 13:08:25 UTC 2018, session >>> 4, duration >>> 5.515
landing_page - Fri Sep 21 13:08:25 UTC 2018, session >>> 1, duration >>> 5.515
landing_page - Fri Sep 21 13:08:25 UTC 2018, session >>> 5, duration >>> 5.515
landing_page - Fri Sep 21 13:08:25 UTC 2018, session >>> 3, duration >>> 5.516
landing_page - Fri Sep 21 13:08:25 UTC 2018, session >>> 2, duration >>> 5.515
create_post - Fri Sep 21 13:08:29 UTC 2018, post_id === 86, request === 26, duration === 5.967
delete_post - Fri Sep 21 13:08:35 UTC 2018, post_id --- 86, request --- 26, duration --- 5.517
